<?xml version="1.0" encoding="UTF-8" standalone="no"?>
<svg
   xmlns:dc="http://purl.org/dc/elements/1.1/"
   xmlns:cc="http://creativecommons.org/ns#"
   xmlns:rdf="http://www.w3.org/1999/02/22-rdf-syntax-ns#"
   xmlns:svg="http://www.w3.org/2000/svg"
   xmlns="http://www.w3.org/2000/svg"
   xmlns:sodipodi="http://sodipodi.sourceforge.net/DTD/sodipodi-0.dtd"
   xmlns:inkscape="http://www.inkscape.org/namespaces/inkscape"
   width="148mm"
   height="100mm"
   viewBox="0 0 148 100"
   version="1.1"
   id="svg8"
   inkscape:version="1.0 (262b4497e3, 2020-09-04)"
   sodipodi:docname="96well_plate.svg">
  <defs
     id="defs2" />
  <sodipodi:namedview
     id="base"
     pagecolor="#ffffff"
     bordercolor="#666666"
     borderopacity="1.0"
     inkscape:pageopacity="0.0"
     inkscape:pageshadow="2"
     inkscape:zoom="0.68387177"
     inkscape:cx="285.51943"
     inkscape:cy="334.66156"
     inkscape:document-units="mm"
     inkscape:current-layer="layer1"
     inkscape:document-rotation="0"
     showgrid="false"
     inkscape:window-width="1516"
     inkscape:window-height="937"
     inkscape:window-x="26"
     inkscape:window-y="23"
     inkscape:window-maximized="0" />
  <metadata
     id="metadata5">
    <rdf:RDF>
      <cc:Work
         rdf:about="">
        <dc:format>image/svg+xml</dc:format>
        <dc:type
           rdf:resource="http://purl.org/dc/dcmitype/StillImage" />
        <dc:title></dc:title>
      </cc:Work>
    </rdf:RDF>
  </metadata>
  <g
     inkscape:label="Layer 1"
     inkscape:groupmode="layer"
     id="layer1"
     transform="translate(0,-196.99998)">
    <g
       id="g1845">
      <rect
         style="fill:#d7f4ee;stroke-width:0.328516"
         id="rect1402"
         width="148"
         height="100"
         x="0"
         y="196.99998"
         rx="4.9333334"
         ry="5" />
      <g
         id="g1745">
        <circle
           style="fill:#278a75;fill-opacity:1;stroke-width:0.264583"
           id="path1404"
           cx="8"
           cy="288.99997"
           r="4" />
        <circle
           style="fill:#278a75;fill-opacity:1;stroke-width:0.264583"
           id="circle1406"
           cx="20"
           cy="288.99997"
           r="4" />
        <circle
           style="fill:#278a75;fill-opacity:1;stroke-width:0.264583"
           id="circle1408"
           cx="32"
           cy="288.99997"
           r="4" />
        <circle
           style="fill:#278a75;fill-opacity:1;stroke-width:0.264583"
           id="circle1410"
           cx="44"
           cy="288.99997"
           r="4" />
        <circle
           style="fill:#278a75;fill-opacity:1;stroke-width:0.264583"
           id="circle1412"
           cx="56"
           cy="288.99997"
           r="4" />
        <circle
           style="fill:#278a75;fill-opacity:1;stroke-width:0.264583"
           id="circle1414"
           cx="68"
           cy="288.99997"
           r="4" />
        <circle
           style="fill:#278a75;fill-opacity:1;stroke-width:0.264583"
           id="circle1416"
           cx="80"
           cy="288.99997"
           r="4" />
        <circle
           style="fill:#278a75;fill-opacity:1;stroke-width:0.264583"
           id="circle1418"
           cx="92"
           cy="288.99997"
           r="4" />
        <circle
           style="fill:#278a75;fill-opacity:1;stroke-width:0.264583"
           id="circle1420"
           cx="104"
           cy="288.99997"
           r="4" />
        <circle
           style="fill:#278a75;fill-opacity:1;stroke-width:0.264583"
           id="circle1422"
           cx="116"
           cy="288.99997"
           r="4" />
        <circle
           style="fill:#278a75;fill-opacity:1;stroke-width:0.264583"
           id="circle1424"
           cx="128"
           cy="288.99997"
           r="4" />
        <circle
           style="fill:#278a75;fill-opacity:1;stroke-width:0.264583"
           id="circle1426"
           cx="140"
           cy="288.99997"
           r="4" />
        <circle
           style="fill:#278a75;fill-opacity:1;stroke-width:0.264583"
           id="circle1481"
           cx="8"
           cy="276.99997"
           r="4" />
        <circle
           style="fill:#278a75;fill-opacity:1;stroke-width:0.264583"
           id="circle1483"
           cx="20"
           cy="276.99997"
           r="4" />
        <circle
           style="fill:#278a75;fill-opacity:1;stroke-width:0.264583"
           id="circle1485"
           cx="32"
           cy="276.99997"
           r="4" />
        <circle
           style="fill:#278a75;fill-opacity:1;stroke-width:0.264583"
           id="circle1487"
           cx="44"
           cy="276.99997"
           r="4" />
        <circle
           style="fill:#278a75;fill-opacity:1;stroke-width:0.264583"
           id="circle1489"
           cx="56"
           cy="276.99997"
           r="4" />
        <circle
           style="fill:#278a75;fill-opacity:1;stroke-width:0.264583"
           id="circle1491"
           cx="68"
           cy="276.99997"
           r="4" />
        <circle
           style="fill:#278a75;fill-opacity:1;stroke-width:0.264583"
           id="circle1493"
           cx="80"
           cy="276.99997"
           r="4" />
        <circle
           style="fill:#278a75;fill-opacity:1;stroke-width:0.264583"
           id="circle1495"
           cx="92"
           cy="276.99997"
           r="4" />
        <circle
           style="fill:#278a75;fill-opacity:1;stroke-width:0.264583"
           id="circle1497"
           cx="104"
           cy="276.99997"
           r="4" />
        <circle
           style="fill:#278a75;fill-opacity:1;stroke-width:0.264583"
           id="circle1499"
           cx="116"
           cy="276.99997"
           r="4" />
        <circle
           style="fill:#278a75;fill-opacity:1;stroke-width:0.264583"
           id="circle1501"
           cx="128"
           cy="276.99997"
           r="4" />
        <circle
           style="fill:#278a75;fill-opacity:1;stroke-width:0.264583"
           id="circle1503"
           cx="140"
           cy="276.99997"
           r="4" />
        <circle
           style="fill:#278a75;fill-opacity:1;stroke-width:0.264583"
           id="circle1505"
           cx="8"
           cy="265"
           r="4" />
        <circle
           style="fill:#278a75;fill-opacity:1;stroke-width:0.264583"
           id="circle1507"
           cx="20"
           cy="265"
           r="4" />
        <circle
           style="fill:#278a75;fill-opacity:1;stroke-width:0.264583"
           id="circle1509"
           cx="32"
           cy="265"
           r="4" />
        <circle
           style="fill:#278a75;fill-opacity:1;stroke-width:0.264583"
           id="circle1511"
           cx="44"
           cy="265"
           r="4" />
        <circle
           style="fill:#278a75;fill-opacity:1;stroke-width:0.264583"
           id="circle1513"
           cx="56"
           cy="265"
           r="4" />
        <circle
           style="fill:#278a75;fill-opacity:1;stroke-width:0.264583"
           id="circle1515"
           cx="68"
           cy="265"
           r="4" />
        <circle
           style="fill:#278a75;fill-opacity:1;stroke-width:0.264583"
           id="circle1517"
           cx="80"
           cy="265"
           r="4" />
        <circle
           style="fill:#278a75;fill-opacity:1;stroke-width:0.264583"
           id="circle1519"
           cx="92"
           cy="265"
           r="4" />
        <circle
           style="fill:#278a75;fill-opacity:1;stroke-width:0.264583"
           id="circle1521"
           cx="104"
           cy="265"
           r="4" />
        <circle
           style="fill:#278a75;fill-opacity:1;stroke-width:0.264583"
           id="circle1523"
           cx="116"
           cy="265"
           r="4" />
        <circle
           style="fill:#278a75;fill-opacity:1;stroke-width:0.264583"
           id="circle1525"
           cx="128"
           cy="265"
           r="4" />
        <circle
           style="fill:#278a75;fill-opacity:1;stroke-width:0.264583"
           id="circle1527"
           cx="140"
           cy="265"
           r="4" />
        <circle
           style="fill:#278a75;fill-opacity:1;stroke-width:0.264583"
           id="circle1529"
           cx="8"
           cy="252.99998"
           r="4" />
        <circle
           style="fill:#278a75;fill-opacity:1;stroke-width:0.264583"
           id="circle1531"
           cx="20"
           cy="252.99998"
           r="4" />
        <circle
           style="fill:#278a75;fill-opacity:1;stroke-width:0.264583"
           id="circle1533"
           cx="32"
           cy="252.99998"
           r="4" />
        <circle
           style="fill:#278a75;fill-opacity:1;stroke-width:0.264583"
           id="circle1535"
           cx="44"
           cy="252.99998"
           r="4" />
        <circle
           style="fill:#278a75;fill-opacity:1;stroke-width:0.264583"
           id="circle1537"
           cx="56"
           cy="252.99998"
           r="4" />
        <circle
           style="fill:#278a75;fill-opacity:1;stroke-width:0.264583"
           id="circle1539"
           cx="68"
           cy="252.99998"
           r="4" />
        <circle
           style="fill:#278a75;fill-opacity:1;stroke-width:0.264583"
           id="circle1541"
           cx="80"
           cy="252.99998"
           r="4" />
        <circle
           style="fill:#278a75;fill-opacity:1;stroke-width:0.264583"
           id="circle1543"
           cx="92"
           cy="252.99998"
           r="4" />
        <circle
           style="fill:#278a75;fill-opacity:1;stroke-width:0.264583"
           id="circle1545"
           cx="104"
           cy="252.99998"
           r="4" />
        <circle
           style="fill:#278a75;fill-opacity:1;stroke-width:0.264583"
           id="circle1547"
           cx="116"
           cy="252.99998"
           r="4" />
        <circle
           style="fill:#278a75;fill-opacity:1;stroke-width:0.264583"
           id="circle1549"
           cx="128"
           cy="252.99998"
           r="4" />
        <circle
           style="fill:#278a75;fill-opacity:1;stroke-width:0.264583"
           id="circle1551"
           cx="140"
           cy="252.99998"
           r="4" />
        <circle
           style="fill:#278a75;fill-opacity:1;stroke-width:0.264583"
           id="circle1553"
           cx="8"
           cy="240.99998"
           r="4" />
        <circle
           style="fill:#278a75;fill-opacity:1;stroke-width:0.264583"
           id="circle1555"
           cx="20"
           cy="240.99998"
           r="4" />
        <circle
           style="fill:#278a75;fill-opacity:1;stroke-width:0.264583"
           id="circle1557"
           cx="32"
           cy="240.99998"
           r="4" />
        <circle
           style="fill:#278a75;fill-opacity:1;stroke-width:0.264583"
           id="circle1559"
           cx="44"
           cy="240.99998"
           r="4" />
        <circle
           style="fill:#278a75;fill-opacity:1;stroke-width:0.264583"
           id="circle1561"
           cx="56"
           cy="240.99998"
           r="4" />
        <circle
           style="fill:#278a75;fill-opacity:1;stroke-width:0.264583"
           id="circle1563"
           cx="68"
           cy="240.99998"
           r="4" />
        <circle
           style="fill:#278a75;fill-opacity:1;stroke-width:0.264583"
           id="circle1565"
           cx="80"
           cy="240.99998"
           r="4" />
        <circle
           style="fill:#278a75;fill-opacity:1;stroke-width:0.264583"
           id="circle1567"
           cx="92"
           cy="240.99998"
           r="4" />
        <circle
           style="fill:#278a75;fill-opacity:1;stroke-width:0.264583"
           id="circle1569"
           cx="104"
           cy="240.99998"
           r="4" />
        <circle
           style="fill:#278a75;fill-opacity:1;stroke-width:0.264583"
           id="circle1571"
           cx="116"
           cy="240.99998"
           r="4" />
        <circle
           style="fill:#278a75;fill-opacity:1;stroke-width:0.264583"
           id="circle1573"
           cx="128"
           cy="240.99998"
           r="4" />
        <circle
           style="fill:#278a75;fill-opacity:1;stroke-width:0.264583"
           id="circle1575"
           cx="140"
           cy="240.99998"
           r="4" />
        <circle
           style="fill:#278a75;fill-opacity:1;stroke-width:0.264583"
           id="circle1577"
           cx="8"
           cy="228.99998"
           r="4" />
        <circle
           style="fill:#278a75;fill-opacity:1;stroke-width:0.264583"
           id="circle1579"
           cx="20"
           cy="228.99998"
           r="4" />
        <circle
           style="fill:#278a75;fill-opacity:1;stroke-width:0.264583"
           id="circle1581"
           cx="32"
           cy="228.99998"
           r="4" />
        <circle
           style="fill:#278a75;fill-opacity:1;stroke-width:0.264583"
           id="circle1583"
           cx="44"
           cy="228.99998"
           r="4" />
        <circle
           style="fill:#278a75;fill-opacity:1;stroke-width:0.264583"
           id="circle1585"
           cx="56"
           cy="228.99998"
           r="4" />
        <circle
           style="fill:#278a75;fill-opacity:1;stroke-width:0.264583"
           id="circle1587"
           cx="68"
           cy="228.99998"
           r="4" />
        <circle
           style="fill:#278a75;fill-opacity:1;stroke-width:0.264583"
           id="circle1589"
           cx="80"
           cy="228.99998"
           r="4" />
        <circle
           style="fill:#278a75;fill-opacity:1;stroke-width:0.264583"
           id="circle1591"
           cx="92"
           cy="228.99998"
           r="4" />
        <circle
           style="fill:#278a75;fill-opacity:1;stroke-width:0.264583"
           id="circle1593"
           cx="104"
           cy="228.99998"
           r="4" />
        <circle
           style="fill:#278a75;fill-opacity:1;stroke-width:0.264583"
           id="circle1595"
           cx="116"
           cy="228.99998"
           r="4" />
        <circle
           style="fill:#278a75;fill-opacity:1;stroke-width:0.264583"
           id="circle1597"
           cx="128"
           cy="228.99998"
           r="4" />
        <circle
           style="fill:#278a75;fill-opacity:1;stroke-width:0.264583"
           id="circle1599"
           cx="140"
           cy="228.99998"
           r="4" />
        <circle
           style="fill:#278a75;fill-opacity:1;stroke-width:0.264583"
           id="circle1601"
           cx="8"
           cy="216.99998"
           r="4" />
        <circle
           style="fill:#278a75;fill-opacity:1;stroke-width:0.264583"
           id="circle1603"
           cx="20"
           cy="216.99998"
           r="4" />
        <circle
           style="fill:#278a75;fill-opacity:1;stroke-width:0.264583"
           id="circle1605"
           cx="32"
           cy="216.99998"
           r="4" />
        <circle
           style="fill:#278a75;fill-opacity:1;stroke-width:0.264583"
           id="circle1607"
           cx="44"
           cy="216.99998"
           r="4" />
        <circle
           style="fill:#278a75;fill-opacity:1;stroke-width:0.264583"
           id="circle1609"
           cx="56"
           cy="216.99998"
           r="4" />
        <circle
           style="fill:#278a75;fill-opacity:1;stroke-width:0.264583"
           id="circle1611"
           cx="68"
           cy="216.99998"
           r="4" />
        <circle
           style="fill:#278a75;fill-opacity:1;stroke-width:0.264583"
           id="circle1613"
           cx="80"
           cy="216.99998"
           r="4" />
        <circle
           style="fill:#278a75;fill-opacity:1;stroke-width:0.264583"
           id="circle1615"
           cx="92"
           cy="216.99998"
           r="4" />
        <circle
           style="fill:#278a75;fill-opacity:1;stroke-width:0.264583"
           id="circle1617"
           cx="104"
           cy="216.99998"
           r="4" />
        <circle
           style="fill:#278a75;fill-opacity:1;stroke-width:0.264583"
           id="circle1619"
           cx="116"
           cy="216.99998"
           r="4" />
        <circle
           style="fill:#278a75;fill-opacity:1;stroke-width:0.264583"
           id="circle1621"
           cx="128"
           cy="216.99998"
           r="4" />
        <circle
           style="fill:#278a75;fill-opacity:1;stroke-width:0.264583"
           id="circle1623"
           cx="140"
           cy="216.99998"
           r="4" />
        <circle
           style="fill:#278a75;fill-opacity:1;stroke-width:0.264583"
           id="circle1625"
           cx="8"
           cy="204.99998"
           r="4" />
        <circle
           style="fill:#278a75;fill-opacity:1;stroke-width:0.264583"
           id="circle1627"
           cx="20"
           cy="204.99998"
           r="4" />
        <circle
           style="fill:#278a75;fill-opacity:1;stroke-width:0.264583"
           id="circle1629"
           cx="32"
           cy="204.99998"
           r="4" />
        <circle
           style="fill:#278a75;fill-opacity:1;stroke-width:0.264583"
           id="circle1631"
           cx="44"
           cy="204.99998"
           r="4" />
        <circle
           style="fill:#278a75;fill-opacity:1;stroke-width:0.264583"
           id="circle1633"
           cx="56"
           cy="204.99998"
           r="4" />
        <circle
           style="fill:#278a75;fill-opacity:1;stroke-width:0.264583"
           id="circle1635"
           cx="68"
           cy="204.99998"
           r="4" />
        <circle
           style="fill:#278a75;fill-opacity:1;stroke-width:0.264583"
           id="circle1637"
           cx="80"
           cy="204.99998"
           r="4" />
        <circle
           style="fill:#278a75;fill-opacity:1;stroke-width:0.264583"
           id="circle1639"
           cx="92"
           cy="204.99998"
           r="4" />
        <circle
           style="fill:#278a75;fill-opacity:1;stroke-width:0.264583"
           id="circle1641"
           cx="104"
           cy="204.99998"
           r="4" />
        <circle
           style="fill:#278a75;fill-opacity:1;stroke-width:0.264583"
           id="circle1643"
           cx="116"
           cy="204.99998"
           r="4" />
        <circle
           style="fill:#278a75;fill-opacity:1;stroke-width:0.264583"
           id="circle1645"
           cx="128"
           cy="204.99998"
           r="4" />
        <circle
           style="fill:#278a75;fill-opacity:1;stroke-width:0.264583"
           id="circle1647"
           cx="140"
           cy="204.99998"
           r="4" />
      </g>
    </g>
  </g>
</svg>
