<?xml version="1.0" encoding="UTF-8" standalone="no"?>
<!DOCTYPE svg PUBLIC "-//W3C//DTD SVG 1.1//EN"
 "http://www.w3.org/Graphics/SVG/1.1/DTD/svg11.dtd">
<!-- Generated by graphviz version 2.43.0 (0)
 -->
<!-- Title: Dilution Pages: 1 -->
<svg width="237pt" height="537pt"
 viewBox="0.00 0.00 236.50 537.00" xmlns="http://www.w3.org/2000/svg" xmlns:xlink="http://www.w3.org/1999/xlink">
<g id="graph0" class="graph" transform="scale(1 1) rotate(0) translate(4 533)">
<title>Dilution</title>
<polygon fill="white" stroke="transparent" points="-4,4 -4,-533 232.5,-533 232.5,4 -4,4"/>
<text text-anchor="middle" x="114.25" y="-513.8" font-family="FreeSans" font-size="14.00">Screening library dilution</text>
<!-- master -->
<g id="node1" class="node">
<title>master</title>
<polygon fill="none" stroke="black" points="6,-444.5 6,-505.5 193,-505.5 193,-444.5 6,-444.5"/>
<text text-anchor="middle" x="99.5" y="-490.3" font-family="FreeSans" font-size="14.00">Master stock</text>
<polyline fill="none" stroke="black" points="6,-482.5 193,-482.5 "/>
<text text-anchor="middle" x="70" y="-467.3" font-family="FreeSans" font-size="14.00">10mM compounds</text>
<text text-anchor="middle" x="70" y="-452.3" font-family="FreeSans" font-size="14.00">100% DMSO</text>
<polyline fill="none" stroke="black" points="134,-444.5 134,-482.5 "/>
<text text-anchor="middle" x="163.5" y="-459.8" font-family="FreeSans" font-size="14.00">96&#45;well</text>
</g>
<!-- mother -->
<g id="node2" class="node">
<title>mother</title>
<polygon fill="none" stroke="black" points="0,-286.5 0,-347.5 199,-347.5 199,-286.5 0,-286.5"/>
<text text-anchor="middle" x="99.5" y="-332.3" font-family="FreeSans" font-size="14.00">Mother plates</text>
<polyline fill="none" stroke="black" points="0,-324.5 199,-324.5 "/>
<text text-anchor="middle" x="66" y="-309.3" font-family="FreeSans" font-size="14.00">500μM compounds</text>
<text text-anchor="middle" x="66" y="-294.3" font-family="FreeSans" font-size="14.00">10% DMSO</text>
<polyline fill="none" stroke="black" points="132,-286.5 132,-324.5 "/>
<text text-anchor="middle" x="165.5" y="-301.8" font-family="FreeSans" font-size="14.00">384&#45;well</text>
</g>
<!-- master&#45;&gt;mother -->
<g id="edge1" class="edge">
<title>master&#45;&gt;mother</title>
<path fill="none" stroke="black" d="M99.5,-444.29C99.5,-419.79 99.5,-384.8 99.5,-357.86"/>
<polygon fill="black" stroke="black" points="103,-357.6 99.5,-347.6 96,-357.6 103,-357.6"/>
<text text-anchor="middle" x="144" y="-414.8" font-family="FreeSans" font-size="14.00">1:20 dilution</text>
<text text-anchor="middle" x="144" y="-399.8" font-family="FreeSans" font-size="14.00">10μL stock</text>
<text text-anchor="middle" x="144" y="-384.8" font-family="FreeSans" font-size="14.00">+ 180μL PBS </text>
<text text-anchor="middle" x="144" y="-369.8" font-family="FreeSans" font-size="14.00">+ 10μL DMSO</text>
</g>
<!-- daughter -->
<g id="node3" class="node">
<title>daughter</title>
<polygon fill="none" stroke="black" points="3.5,-143.5 3.5,-204.5 195.5,-204.5 195.5,-143.5 3.5,-143.5"/>
<text text-anchor="middle" x="99.5" y="-189.3" font-family="FreeSans" font-size="14.00">Daughter plates</text>
<polyline fill="none" stroke="black" points="3.5,-181.5 195.5,-181.5 "/>
<text text-anchor="middle" x="66" y="-166.3" font-family="FreeSans" font-size="14.00">50μM compounds</text>
<text text-anchor="middle" x="66" y="-151.3" font-family="FreeSans" font-size="14.00">1% DMSO</text>
<polyline fill="none" stroke="black" points="128.5,-143.5 128.5,-181.5 "/>
<text text-anchor="middle" x="162" y="-158.8" font-family="FreeSans" font-size="14.00">384&#45;well</text>
</g>
<!-- mother&#45;&gt;daughter -->
<g id="edge2" class="edge">
<title>mother&#45;&gt;daughter</title>
<path fill="none" stroke="black" d="M99.5,-286.44C99.5,-265.57 99.5,-237.38 99.5,-214.57"/>
<polygon fill="black" stroke="black" points="103,-214.52 99.5,-204.52 96,-214.52 103,-214.52"/>
<text text-anchor="middle" x="148" y="-256.8" font-family="FreeSans" font-size="14.00">1:10 dilution</text>
<text text-anchor="middle" x="148" y="-241.8" font-family="FreeSans" font-size="14.00">20μL stock</text>
<text text-anchor="middle" x="148" y="-226.8" font-family="FreeSans" font-size="14.00">+ 180μL DMSO</text>
</g>
<!-- experimental -->
<g id="node4" class="node">
<title>experimental</title>
<polygon fill="none" stroke="black" points="7.5,-0.5 7.5,-61.5 191.5,-61.5 191.5,-0.5 7.5,-0.5"/>
<text text-anchor="middle" x="99.5" y="-46.3" font-family="FreeSans" font-size="14.00">Experimental plates</text>
<polyline fill="none" stroke="black" points="7.5,-38.5 191.5,-38.5 "/>
<text text-anchor="middle" x="66" y="-23.3" font-family="FreeSans" font-size="14.00">5μM compounds</text>
<text text-anchor="middle" x="66" y="-8.3" font-family="FreeSans" font-size="14.00">0.1% DMSO</text>
<polyline fill="none" stroke="black" points="124.5,-0.5 124.5,-38.5 "/>
<text text-anchor="middle" x="158" y="-15.8" font-family="FreeSans" font-size="14.00">384&#45;well</text>
</g>
<!-- daughter&#45;&gt;experimental -->
<g id="edge3" class="edge">
<title>daughter&#45;&gt;experimental</title>
<path fill="none" stroke="black" d="M99.5,-143.44C99.5,-122.57 99.5,-94.38 99.5,-71.57"/>
<polygon fill="black" stroke="black" points="103,-71.52 99.5,-61.52 96,-71.52 103,-71.52"/>
<text text-anchor="middle" x="164" y="-113.8" font-family="FreeSans" font-size="14.00">1:10 dilution</text>
<text text-anchor="middle" x="164" y="-98.8" font-family="FreeSans" font-size="14.00">5μL stock</text>
<text text-anchor="middle" x="164" y="-83.8" font-family="FreeSans" font-size="14.00">+ 45μL cells in media</text>
</g>
</g>
</svg>
