<?xml version="1.0" encoding="UTF-8"?>
<svg xmlns="http://www.w3.org/2000/svg" xmlns:xlink="http://www.w3.org/1999/xlink" width="360pt" height="360pt" viewBox="0 0 360 360" version="1.1">
<defs>
<g>
<symbol overflow="visible" id="glyph0-0">
<path style="stroke:none;" d=""/>
</symbol>
<symbol overflow="visible" id="glyph0-1">
<path style="stroke:none;" d="M 1.734375 -2.921875 L 3.953125 -2.921875 C 4.734375 -2.921875 5.078125 -2.546875 5.078125 -1.703125 L 5.0625 -1.109375 C 5.0625 -0.6875 5.140625 -0.28125 5.265625 0 L 6.3125 0 L 6.3125 -0.21875 C 5.984375 -0.4375 5.921875 -0.671875 5.90625 -1.578125 C 5.890625 -2.703125 5.71875 -3.03125 4.984375 -3.34375 C 5.75 -3.734375 6.046875 -4.1875 6.046875 -4.96875 C 6.046875 -6.140625 5.328125 -6.78125 3.984375 -6.78125 L 0.859375 -6.78125 L 0.859375 0 L 1.734375 0 Z M 1.734375 -3.6875 L 1.734375 -6.015625 L 3.828125 -6.015625 C 4.296875 -6.015625 4.578125 -5.9375 4.796875 -5.75 C 5.03125 -5.5625 5.15625 -5.25 5.15625 -4.859375 C 5.15625 -4.046875 4.734375 -3.6875 3.828125 -3.6875 Z M 1.734375 -3.6875 "/>
</symbol>
<symbol overflow="visible" id="glyph0-2">
<path style="stroke:none;" d="M 4.96875 -0.453125 C 4.890625 -0.4375 4.859375 -0.4375 4.8125 -0.4375 C 4.53125 -0.4375 4.390625 -0.578125 4.390625 -0.8125 L 4.390625 -3.6875 C 4.390625 -4.546875 3.75 -5.015625 2.5625 -5.015625 C 1.84375 -5.015625 1.28125 -4.8125 0.9375 -4.4375 C 0.71875 -4.1875 0.625 -3.90625 0.609375 -3.4375 L 1.390625 -3.4375 C 1.453125 -4.03125 1.796875 -4.296875 2.53125 -4.296875 C 3.234375 -4.296875 3.609375 -4.03125 3.609375 -3.5625 L 3.609375 -3.359375 C 3.609375 -3.03125 3.4375 -2.90625 2.8125 -2.828125 C 1.703125 -2.6875 1.546875 -2.65625 1.25 -2.53125 C 0.671875 -2.28125 0.390625 -1.859375 0.390625 -1.234375 C 0.390625 -0.34375 1 0.21875 1.984375 0.21875 C 2.609375 0.21875 3.09375 0 3.640625 -0.5 C 3.703125 0 3.9375 0.21875 4.4375 0.21875 C 4.609375 0.21875 4.71875 0.1875 4.96875 0.125 Z M 3.609375 -1.53125 C 3.609375 -1.28125 3.546875 -1.109375 3.3125 -0.90625 C 3 -0.609375 2.609375 -0.46875 2.15625 -0.46875 C 1.546875 -0.46875 1.203125 -0.75 1.203125 -1.25 C 1.203125 -1.75 1.53125 -2.015625 2.375 -2.140625 C 3.203125 -2.25 3.359375 -2.28125 3.609375 -2.40625 Z M 3.609375 -1.53125 "/>
</symbol>
<symbol overflow="visible" id="glyph0-3">
<path style="stroke:none;" d="M 0.65625 -4.875 L 0.65625 0.703125 C 0.65625 1.1875 0.5 1.34375 0.015625 1.34375 C -0.03125 1.34375 -0.0625 1.34375 -0.171875 1.34375 L -0.171875 2 C -0.078125 2.015625 -0.03125 2.03125 0.09375 2.03125 C 0.96875 2.03125 1.421875 1.6875 1.421875 1.015625 L 1.421875 -4.875 Z M 1.421875 -6.78125 L 0.65625 -6.78125 L 0.65625 -5.796875 L 1.421875 -5.796875 Z M 1.421875 -6.78125 "/>
</symbol>
<symbol overflow="visible" id="glyph0-4">
<path style="stroke:none;" d="M 1.390625 -4.875 L 0.625 -4.875 L 0.625 0 L 1.390625 0 Z M 1.390625 -6.78125 L 0.609375 -6.78125 L 0.609375 -5.796875 L 1.390625 -5.796875 Z M 1.390625 -6.78125 "/>
</symbol>
<symbol overflow="visible" id="glyph0-5">
<path style="stroke:none;" d="M 4.34375 0 L 6.25 -5.6875 L 6.25 0 L 7.078125 0 L 7.078125 -6.78125 L 5.875 -6.78125 L 3.90625 -0.875 L 1.890625 -6.78125 L 0.703125 -6.78125 L 0.703125 0 L 1.515625 0 L 1.515625 -5.6875 L 3.4375 0 Z M 4.34375 0 "/>
</symbol>
<symbol overflow="visible" id="glyph0-6">
<path style="stroke:none;" d="M 0.65625 -4.875 L 0.65625 0 L 1.4375 0 L 1.4375 -2.6875 C 1.4375 -3.6875 1.953125 -4.328125 2.75 -4.328125 C 3.359375 -4.328125 3.75 -3.953125 3.75 -3.375 L 3.75 0 L 4.53125 0 L 4.53125 -3.6875 C 4.53125 -4.484375 3.921875 -5.015625 2.984375 -5.015625 C 2.265625 -5.015625 1.796875 -4.734375 1.359375 -4.046875 L 1.359375 -4.875 Z M 0.65625 -4.875 "/>
</symbol>
<symbol overflow="visible" id="glyph0-7">
<path style="stroke:none;" d="M 3.75 -4.875 L 3.75 -4.171875 C 3.359375 -4.75 2.9375 -5.015625 2.328125 -5.015625 C 1.140625 -5.015625 0.328125 -3.90625 0.328125 -2.359375 C 0.328125 -1.53125 0.515625 -0.9375 0.9375 -0.453125 C 1.296875 -0.015625 1.765625 0.21875 2.265625 0.21875 C 2.859375 0.21875 3.265625 -0.046875 3.6875 -0.65625 L 3.6875 -0.40625 C 3.6875 0.890625 3.3125 1.375 2.359375 1.375 C 1.6875 1.375 1.34375 1.109375 1.28125 0.5625 L 0.484375 0.5625 C 0.5625 1.453125 1.28125 2.03125 2.328125 2.03125 C 3.046875 2.03125 3.640625 1.796875 3.953125 1.40625 C 4.328125 0.953125 4.46875 0.34375 4.46875 -0.796875 L 4.46875 -4.875 Z M 2.40625 -4.296875 C 3.21875 -4.296875 3.6875 -3.609375 3.6875 -2.375 C 3.6875 -1.1875 3.203125 -0.5 2.40625 -0.5 C 1.59375 -0.5 1.140625 -1.203125 1.140625 -2.40625 C 1.140625 -3.59375 1.59375 -4.296875 2.40625 -4.296875 Z M 2.40625 -4.296875 "/>
</symbol>
<symbol overflow="visible" id="glyph0-8">
<path style="stroke:none;" d="M 2.53125 -5.015625 C 1.15625 -5.015625 0.328125 -4.03125 0.328125 -2.40625 C 0.328125 -0.75 1.15625 0.21875 2.53125 0.21875 C 3.90625 0.21875 4.734375 -0.765625 4.734375 -2.359375 C 4.734375 -4.046875 3.9375 -5.015625 2.53125 -5.015625 Z M 2.53125 -4.296875 C 3.40625 -4.296875 3.9375 -3.578125 3.9375 -2.375 C 3.9375 -1.21875 3.390625 -0.5 2.53125 -0.5 C 1.671875 -0.5 1.140625 -1.21875 1.140625 -2.40625 C 1.140625 -3.578125 1.671875 -4.296875 2.53125 -4.296875 Z M 2.53125 -4.296875 "/>
</symbol>
<symbol overflow="visible" id="glyph0-9">
<path style="stroke:none;" d="M 4.078125 -3.515625 C 4.0625 -4.46875 3.4375 -5.015625 2.3125 -5.015625 C 1.171875 -5.015625 0.4375 -4.421875 0.4375 -3.53125 C 0.4375 -2.765625 0.828125 -2.40625 1.984375 -2.125 L 2.703125 -1.9375 C 3.25 -1.8125 3.453125 -1.625 3.453125 -1.28125 C 3.453125 -0.8125 3 -0.5 2.328125 -0.5 C 1.90625 -0.5 1.546875 -0.625 1.359375 -0.828125 C 1.234375 -0.96875 1.1875 -1.109375 1.140625 -1.453125 L 0.3125 -1.453125 C 0.359375 -0.328125 0.984375 0.21875 2.265625 0.21875 C 3.484375 0.21875 4.265625 -0.390625 4.265625 -1.328125 C 4.265625 -2.046875 3.859375 -2.453125 2.890625 -2.6875 L 2.140625 -2.859375 C 1.515625 -3.015625 1.25 -3.21875 1.25 -3.5625 C 1.25 -4.015625 1.640625 -4.296875 2.28125 -4.296875 C 2.90625 -4.296875 3.234375 -4.03125 3.25 -3.515625 Z M 4.078125 -3.515625 "/>
</symbol>
<symbol overflow="visible" id="glyph0-10">
<path style="stroke:none;" d="M 2.359375 -4.875 L 1.5625 -4.875 L 1.5625 -6.203125 L 0.796875 -6.203125 L 0.796875 -4.875 L 0.125 -4.875 L 0.125 -4.234375 L 0.796875 -4.234375 L 0.796875 -0.5625 C 0.796875 -0.0625 1.125 0.21875 1.734375 0.21875 C 1.9375 0.21875 2.09375 0.1875 2.359375 0.15625 L 2.359375 -0.5 C 2.25 -0.46875 2.140625 -0.46875 1.984375 -0.46875 C 1.65625 -0.46875 1.5625 -0.5625 1.5625 -0.90625 L 1.5625 -4.234375 L 2.359375 -4.234375 Z M 2.359375 -4.875 "/>
</symbol>
<symbol overflow="visible" id="glyph0-11">
<path style="stroke:none;" d="M 4.765625 -2.171875 C 4.765625 -2.921875 4.71875 -3.359375 4.578125 -3.734375 C 4.265625 -4.53125 3.515625 -5.015625 2.609375 -5.015625 C 1.25 -5.015625 0.375 -3.984375 0.375 -2.375 C 0.375 -0.765625 1.203125 0.21875 2.578125 0.21875 C 3.703125 0.21875 4.46875 -0.421875 4.671875 -1.484375 L 3.890625 -1.484375 C 3.671875 -0.84375 3.234375 -0.5 2.609375 -0.5 C 2.125 -0.5 1.703125 -0.71875 1.4375 -1.140625 C 1.25 -1.40625 1.1875 -1.6875 1.1875 -2.171875 Z M 1.203125 -2.8125 C 1.265625 -3.703125 1.8125 -4.296875 2.59375 -4.296875 C 3.390625 -4.296875 3.9375 -3.6875 3.9375 -2.8125 Z M 1.203125 -2.8125 "/>
</symbol>
<symbol overflow="visible" id="glyph0-12">
<path style="stroke:none;" d="M 1.609375 -6.78125 L 0.75 -6.78125 L 0.75 0 L 4.953125 0 L 4.953125 -0.765625 L 1.609375 -0.765625 Z M 1.609375 -6.78125 "/>
</symbol>
<symbol overflow="visible" id="glyph0-13">
<path style="stroke:none;" d="M 6.15625 -4.671875 C 5.890625 -6.15625 5.03125 -6.890625 3.546875 -6.890625 C 2.625 -6.890625 1.890625 -6.59375 1.390625 -6.046875 C 0.78125 -5.375 0.453125 -4.40625 0.453125 -3.3125 C 0.453125 -2.1875 0.796875 -1.234375 1.421875 -0.578125 C 1.953125 -0.03125 2.625 0.21875 3.5 0.21875 C 5.15625 0.21875 6.09375 -0.671875 6.296875 -2.46875 L 5.40625 -2.46875 C 5.328125 -2.015625 5.234375 -1.6875 5.09375 -1.421875 C 4.8125 -0.859375 4.234375 -0.546875 3.515625 -0.546875 C 2.171875 -0.546875 1.3125 -1.625 1.3125 -3.3125 C 1.3125 -5.0625 2.125 -6.125 3.4375 -6.125 C 3.984375 -6.125 4.5 -5.96875 4.78125 -5.703125 C 5.03125 -5.46875 5.171875 -5.1875 5.265625 -4.671875 Z M 6.15625 -4.671875 "/>
</symbol>
<symbol overflow="visible" id="glyph0-14">
<path style="stroke:none;" d="M 0.734375 0 L 3.796875 0 C 4.4375 0 4.90625 -0.171875 5.265625 -0.5625 C 5.609375 -0.921875 5.796875 -1.40625 5.796875 -1.9375 C 5.796875 -2.75 5.421875 -3.25 4.5625 -3.578125 C 5.171875 -3.875 5.5 -4.359375 5.5 -5.0625 C 5.5 -5.5625 5.3125 -5.984375 4.953125 -6.296875 C 4.59375 -6.625 4.140625 -6.78125 3.484375 -6.78125 L 0.734375 -6.78125 Z M 1.59375 -3.859375 L 1.59375 -6.015625 L 3.265625 -6.015625 C 3.75 -6.015625 4.03125 -5.953125 4.265625 -5.765625 C 4.5 -5.59375 4.625 -5.3125 4.625 -4.9375 C 4.625 -4.5625 4.5 -4.28125 4.265625 -4.09375 C 4.03125 -3.921875 3.75 -3.859375 3.265625 -3.859375 Z M 1.59375 -0.765625 L 1.59375 -3.09375 L 3.703125 -3.09375 C 4.46875 -3.09375 4.921875 -2.65625 4.921875 -1.921875 C 4.921875 -1.203125 4.46875 -0.765625 3.703125 -0.765625 Z M 1.59375 -0.765625 "/>
</symbol>
<symbol overflow="visible" id="glyph0-15">
<path style="stroke:none;" d="M 6.8125 0.015625 L 5.9375 -0.703125 C 6.578125 -1.40625 6.890625 -2.28125 6.890625 -3.359375 C 6.890625 -5.46875 5.578125 -6.890625 3.625 -6.890625 C 1.671875 -6.890625 0.359375 -5.46875 0.359375 -3.34375 C 0.359375 -1.21875 1.671875 0.21875 3.625 0.21875 C 4.296875 0.21875 4.859375 0.0625 5.40625 -0.265625 L 6.375 0.546875 Z M 4.46875 -1.90625 L 4.046875 -1.390625 L 4.734375 -0.8125 C 4.328125 -0.609375 4.03125 -0.546875 3.609375 -0.546875 C 2.171875 -0.546875 1.21875 -1.671875 1.21875 -3.34375 C 1.21875 -5.015625 2.171875 -6.125 3.625 -6.125 C 5.0625 -6.125 6.03125 -5.015625 6.03125 -3.34375 C 6.03125 -2.46875 5.796875 -1.796875 5.296875 -1.234375 Z M 4.46875 -1.90625 "/>
</symbol>
<symbol overflow="visible" id="glyph0-16">
<path style="stroke:none;" d="M 4.421875 -6.59375 L 1.015625 -6.59375 L 0.53125 -3 L 1.28125 -3 C 1.671875 -3.453125 1.984375 -3.609375 2.5 -3.609375 C 3.390625 -3.609375 3.9375 -3.015625 3.9375 -2.03125 C 3.9375 -1.09375 3.390625 -0.515625 2.484375 -0.515625 C 1.78125 -0.515625 1.34375 -0.875 1.140625 -1.625 L 0.328125 -1.625 C 0.4375 -1.078125 0.53125 -0.8125 0.71875 -0.578125 C 1.09375 -0.078125 1.765625 0.21875 2.515625 0.21875 C 3.84375 0.21875 4.765625 -0.75 4.765625 -2.140625 C 4.765625 -3.453125 3.90625 -4.34375 2.640625 -4.34375 C 2.171875 -4.34375 1.796875 -4.21875 1.421875 -3.9375 L 1.6875 -5.78125 L 4.421875 -5.78125 Z M 4.421875 -6.59375 "/>
</symbol>
<symbol overflow="visible" id="glyph0-17">
<path style="stroke:none;" d="M 2.046875 -3.09375 L 2.5 -3.09375 C 3.390625 -3.09375 3.875 -2.671875 3.875 -1.875 C 3.875 -1.015625 3.359375 -0.515625 2.515625 -0.515625 C 1.609375 -0.515625 1.171875 -0.96875 1.109375 -1.953125 L 0.296875 -1.953125 C 0.328125 -1.40625 0.421875 -1.0625 0.578125 -0.765625 C 0.9375 -0.109375 1.578125 0.21875 2.46875 0.21875 C 3.828125 0.21875 4.703125 -0.609375 4.703125 -1.875 C 4.703125 -2.734375 4.375 -3.203125 3.59375 -3.484375 C 4.203125 -3.734375 4.515625 -4.1875 4.515625 -4.875 C 4.515625 -6.03125 3.75 -6.71875 2.5 -6.71875 C 1.171875 -6.71875 0.46875 -5.984375 0.4375 -4.5625 L 1.25 -4.5625 C 1.265625 -4.96875 1.296875 -5.203125 1.40625 -5.40625 C 1.59375 -5.78125 2 -6 2.515625 -6 C 3.234375 -6 3.671875 -5.5625 3.671875 -4.84375 C 3.671875 -4.375 3.5 -4.078125 3.140625 -3.921875 C 2.921875 -3.828125 2.625 -3.796875 2.046875 -3.78125 Z M 2.046875 -3.09375 "/>
</symbol>
<symbol overflow="visible" id="glyph0-18">
<path style="stroke:none;" d="M 1.703125 -3.09375 L 4.9375 -3.09375 L 4.9375 -3.84375 L 1.703125 -3.84375 L 1.703125 -6.015625 L 5.390625 -6.015625 L 5.390625 -6.78125 L 0.84375 -6.78125 L 0.84375 0 L 1.703125 0 Z M 1.703125 -3.09375 "/>
</symbol>
<symbol overflow="visible" id="glyph0-19">
<path style="stroke:none;" d="M 1.703125 -3.09375 L 5.390625 -3.09375 L 5.390625 -3.84375 L 1.703125 -3.84375 L 1.703125 -6.015625 L 5.53125 -6.015625 L 5.53125 -6.78125 L 0.84375 -6.78125 L 0.84375 0 L 5.703125 0 L 5.703125 -0.765625 L 1.703125 -0.765625 Z M 1.703125 -3.09375 "/>
</symbol>
<symbol overflow="visible" id="glyph0-20">
<path style="stroke:none;" d="M 2.640625 -2.90625 L 0.421875 -2.90625 L 0.421875 -2.234375 L 2.640625 -2.234375 Z M 2.640625 -2.90625 "/>
</symbol>
<symbol overflow="visible" id="glyph0-21">
<path style="stroke:none;" d="M 1.703125 -2.875 L 3.84375 -2.875 C 4.375 -2.875 4.78125 -3.03125 5.15625 -3.359375 C 5.5625 -3.734375 5.734375 -4.171875 5.734375 -4.78125 C 5.734375 -6.0625 4.984375 -6.78125 3.640625 -6.78125 L 0.84375 -6.78125 L 0.84375 0 L 1.703125 0 Z M 1.703125 -3.640625 L 1.703125 -6.015625 L 3.515625 -6.015625 C 4.34375 -6.015625 4.828125 -5.5625 4.828125 -4.828125 C 4.828125 -4.078125 4.34375 -3.640625 3.515625 -3.640625 Z M 1.703125 -3.640625 "/>
</symbol>
<symbol overflow="visible" id="glyph0-22">
<path style="stroke:none;" d="M 0.828125 0 L 3.4375 0 C 5.15625 0 6.203125 -1.28125 6.203125 -3.390625 C 6.203125 -5.5 5.15625 -6.78125 3.4375 -6.78125 L 0.828125 -6.78125 Z M 1.6875 -0.765625 L 1.6875 -6.015625 L 3.296875 -6.015625 C 4.625 -6.015625 5.34375 -5.109375 5.34375 -3.390625 C 5.34375 -1.671875 4.625 -0.765625 3.296875 -0.765625 Z M 1.6875 -0.765625 "/>
</symbol>
<symbol overflow="visible" id="glyph0-23">
<path style="stroke:none;" d="M 6.59375 -3.578125 L 3.765625 -3.578125 L 3.765625 -2.8125 L 5.828125 -2.8125 L 5.828125 -2.625 C 5.828125 -1.421875 4.9375 -0.546875 3.703125 -0.546875 C 3.015625 -0.546875 2.390625 -0.796875 1.984375 -1.234375 C 1.546875 -1.71875 1.28125 -2.53125 1.28125 -3.359375 C 1.28125 -5.03125 2.21875 -6.125 3.65625 -6.125 C 4.6875 -6.125 5.421875 -5.59375 5.609375 -4.71875 L 6.5 -4.71875 C 6.25 -6.09375 5.21875 -6.890625 3.65625 -6.890625 C 2.828125 -6.890625 2.171875 -6.671875 1.640625 -6.234375 C 0.84375 -5.59375 0.40625 -4.53125 0.40625 -3.3125 C 0.40625 -1.234375 1.6875 0.21875 3.515625 0.21875 C 4.4375 0.21875 5.15625 -0.125 5.828125 -0.859375 L 6.046875 0.03125 L 6.59375 0.03125 Z M 6.59375 -3.578125 "/>
</symbol>
<symbol overflow="visible" id="glyph0-24">
<path style="stroke:none;" d="M 4.828125 -6.59375 L 0.421875 -6.59375 L 0.421875 -5.78125 L 3.984375 -5.78125 C 2.421875 -3.546875 1.78125 -2.171875 1.28125 0 L 2.15625 0 C 2.515625 -2.109375 3.34375 -3.921875 4.828125 -5.90625 Z M 4.828125 -6.59375 "/>
</symbol>
<symbol overflow="visible" id="glyph0-25">
<path style="stroke:none;" d="M 1.3125 -6.78125 L 0.546875 -6.78125 L 0.546875 0 L 1.3125 0 L 1.3125 -1.890625 L 2.0625 -2.640625 L 3.703125 0 L 4.671875 0 L 2.671875 -3.1875 L 4.375 -4.875 L 3.375 -4.875 L 1.3125 -2.8125 Z M 1.3125 -6.78125 "/>
</symbol>
<symbol overflow="visible" id="glyph0-26">
<path style="stroke:none;" d="M 5.546875 -4.78125 C 5.546875 -5.25 5.515625 -5.390625 5.359375 -5.703125 C 5 -6.484375 4.203125 -6.890625 3.0625 -6.890625 C 1.578125 -6.890625 0.65625 -6.125 0.65625 -4.90625 C 0.65625 -4.078125 1.09375 -3.546875 1.984375 -3.3125 L 3.65625 -2.875 C 4.53125 -2.65625 4.90625 -2.3125 4.90625 -1.78125 C 4.90625 -1.40625 4.71875 -1.046875 4.421875 -0.84375 C 4.15625 -0.640625 3.734375 -0.546875 3.171875 -0.546875 C 2.4375 -0.546875 1.9375 -0.71875 1.625 -1.109375 C 1.359375 -1.40625 1.25 -1.734375 1.265625 -2.15625 L 0.453125 -2.15625 C 0.453125 -1.53125 0.578125 -1.125 0.84375 -0.75 C 1.3125 -0.109375 2.09375 0.21875 3.125 0.21875 C 3.9375 0.21875 4.59375 0.03125 5.03125 -0.3125 C 5.484375 -0.671875 5.765625 -1.28125 5.765625 -1.859375 C 5.765625 -2.703125 5.25 -3.3125 4.328125 -3.5625 L 2.625 -4.015625 C 1.8125 -4.234375 1.515625 -4.5 1.515625 -5.015625 C 1.515625 -5.703125 2.125 -6.15625 3.03125 -6.15625 C 4.109375 -6.15625 4.71875 -5.6875 4.71875 -4.78125 Z M 5.546875 -4.78125 "/>
</symbol>
<symbol overflow="visible" id="glyph0-27">
<path style="stroke:none;" d="M 5.125 -6.78125 L 5.125 -2.015625 C 5.125 -1.109375 4.46875 -0.546875 3.390625 -0.546875 C 2.875 -0.546875 2.46875 -0.671875 2.140625 -0.90625 C 1.8125 -1.15625 1.65625 -1.5 1.65625 -2.015625 L 1.65625 -6.78125 L 0.796875 -6.78125 L 0.796875 -2.015625 C 0.796875 -0.640625 1.78125 0.21875 3.390625 0.21875 C 4.96875 0.21875 6 -0.65625 6 -2.015625 L 6 -6.78125 Z M 5.125 -6.78125 "/>
</symbol>
<symbol overflow="visible" id="glyph0-28">
<path style="stroke:none;" d="M 5.125 -3.09375 L 5.125 0 L 5.984375 0 L 5.984375 -6.78125 L 5.125 -6.78125 L 5.125 -3.84375 L 1.640625 -3.84375 L 1.640625 -6.78125 L 0.765625 -6.78125 L 0.765625 0 L 1.640625 0 L 1.640625 -3.09375 Z M 5.125 -3.09375 "/>
</symbol>
<symbol overflow="visible" id="glyph0-29">
<path style="stroke:none;" d="M 2.40625 -4.78125 L 2.40625 0 L 3.21875 0 L 3.21875 -6.71875 L 2.6875 -6.71875 C 2.40625 -5.6875 2.21875 -5.546875 0.953125 -5.390625 L 0.953125 -4.78125 Z M 2.40625 -4.78125 "/>
</symbol>
<symbol overflow="visible" id="glyph0-30">
<path style="stroke:none;" d="M 2.5625 -6.71875 C 1.9375 -6.71875 1.390625 -6.4375 1.046875 -5.984375 C 0.609375 -5.390625 0.40625 -4.5 0.40625 -3.25 C 0.40625 -0.984375 1.140625 0.21875 2.5625 0.21875 C 3.953125 0.21875 4.71875 -0.984375 4.71875 -3.203125 C 4.71875 -4.5 4.515625 -5.375 4.078125 -5.984375 C 3.734375 -6.453125 3.171875 -6.71875 2.5625 -6.71875 Z M 2.5625 -6 C 3.4375 -6 3.875 -5.09375 3.875 -3.265625 C 3.875 -1.359375 3.453125 -0.46875 2.53125 -0.46875 C 1.671875 -0.46875 1.234375 -1.390625 1.234375 -3.25 C 1.234375 -5.09375 1.671875 -6 2.5625 -6 Z M 2.5625 -6 "/>
</symbol>
<symbol overflow="visible" id="glyph0-31">
<path style="stroke:none;" d="M 4.703125 -0.8125 L 1.234375 -0.8125 C 1.3125 -1.359375 1.625 -1.71875 2.421875 -2.21875 L 3.359375 -2.734375 C 4.28125 -3.25 4.75 -3.9375 4.75 -4.765625 C 4.75 -5.3125 4.53125 -5.84375 4.140625 -6.203125 C 3.75 -6.546875 3.265625 -6.71875 2.640625 -6.71875 C 1.796875 -6.71875 1.1875 -6.421875 0.8125 -5.84375 C 0.578125 -5.5 0.484375 -5.078125 0.46875 -4.390625 L 1.28125 -4.390625 C 1.3125 -4.859375 1.359375 -5.125 1.484375 -5.34375 C 1.6875 -5.75 2.125 -6 2.609375 -6 C 3.359375 -6 3.90625 -5.46875 3.90625 -4.734375 C 3.90625 -4.203125 3.609375 -3.734375 3.015625 -3.40625 L 2.171875 -2.90625 C 0.796875 -2.109375 0.390625 -1.484375 0.3125 -0.015625 L 4.703125 -0.015625 Z M 4.703125 -0.8125 "/>
</symbol>
<symbol overflow="visible" id="glyph0-32">
<path style="stroke:none;" d="M 0.640625 -4.875 L 0.640625 0 L 1.421875 0 L 1.421875 -2.53125 C 1.4375 -3.703125 1.921875 -4.21875 2.984375 -4.1875 L 2.984375 -4.984375 C 2.859375 -5 2.78125 -5.015625 2.6875 -5.015625 C 2.1875 -5.015625 1.796875 -4.71875 1.359375 -3.984375 L 1.359375 -4.875 Z M 0.640625 -4.875 "/>
</symbol>
<symbol overflow="visible" id="glyph0-33">
<path style="stroke:none;" d="M 1.40625 -6.78125 L 0.625 -6.78125 L 0.625 0 L 1.40625 0 Z M 1.40625 -6.78125 "/>
</symbol>
<symbol overflow="visible" id="glyph0-34">
<path style="stroke:none;" d="M 0.5 2.03125 L 1.28125 2.03125 L 1.28125 -0.515625 C 1.6875 -0.015625 2.140625 0.21875 2.78125 0.21875 C 4.046875 0.21875 4.859375 -0.796875 4.859375 -2.359375 C 4.859375 -3.984375 4.0625 -5.015625 2.765625 -5.015625 C 2.109375 -5.015625 1.578125 -4.71875 1.21875 -4.140625 L 1.21875 -4.875 L 0.5 -4.875 Z M 2.640625 -4.28125 C 3.5 -4.28125 4.046875 -3.53125 4.046875 -2.375 C 4.046875 -1.265625 3.484375 -0.515625 2.640625 -0.515625 C 1.8125 -0.515625 1.28125 -1.25 1.28125 -2.40625 C 1.28125 -3.546875 1.8125 -4.28125 2.640625 -4.28125 Z M 2.640625 -4.28125 "/>
</symbol>
<symbol overflow="visible" id="glyph0-35">
<path style="stroke:none;" d="M 4.609375 -6.78125 L 3.828125 -6.78125 L 3.828125 -4.265625 C 3.5 -4.75 2.984375 -5.015625 2.328125 -5.015625 C 1.0625 -5.015625 0.234375 -4 0.234375 -2.4375 C 0.234375 -0.796875 1.046875 0.21875 2.359375 0.21875 C 3.03125 0.21875 3.5 -0.03125 3.90625 -0.640625 L 3.90625 0 L 4.609375 0 Z M 2.46875 -4.28125 C 3.296875 -4.28125 3.828125 -3.546875 3.828125 -2.375 C 3.828125 -1.25 3.296875 -0.515625 2.46875 -0.515625 C 1.625 -0.515625 1.046875 -1.265625 1.046875 -2.40625 C 1.046875 -3.53125 1.625 -4.28125 2.46875 -4.28125 Z M 2.46875 -4.28125 "/>
</symbol>
<symbol overflow="visible" id="glyph1-0">
<path style="stroke:none;" d=""/>
</symbol>
<symbol overflow="visible" id="glyph1-1">
<path style="stroke:none;" d="M 0.8125 -8.390625 L 0.8125 0 L 1.765625 0 L 1.765625 -3.328125 C 1.765625 -4.546875 2.40625 -5.359375 3.390625 -5.359375 C 3.71875 -5.359375 4.015625 -5.265625 4.25 -5.09375 C 4.515625 -4.890625 4.640625 -4.59375 4.640625 -4.171875 L 4.640625 0 L 5.59375 0 L 5.59375 -4.546875 C 5.59375 -5.5625 4.859375 -6.203125 3.6875 -6.203125 C 2.84375 -6.203125 2.328125 -5.9375 1.765625 -5.203125 L 1.765625 -8.390625 Z M 0.8125 -8.390625 "/>
</symbol>
<symbol overflow="visible" id="glyph1-2">
<path style="stroke:none;" d="M 1.71875 -6.03125 L 0.765625 -6.03125 L 0.765625 0 L 1.71875 0 Z M 1.71875 -8.390625 L 0.765625 -8.390625 L 0.765625 -7.171875 L 1.71875 -7.171875 Z M 1.71875 -8.390625 "/>
</symbol>
<symbol overflow="visible" id="glyph1-3">
<path style="stroke:none;" d="M 2.921875 -6.03125 L 1.9375 -6.03125 L 1.9375 -7.6875 L 0.984375 -7.6875 L 0.984375 -6.03125 L 0.15625 -6.03125 L 0.15625 -5.25 L 0.984375 -5.25 L 0.984375 -0.6875 C 0.984375 -0.0625 1.390625 0.265625 2.140625 0.265625 C 2.390625 0.265625 2.59375 0.234375 2.921875 0.1875 L 2.921875 -0.625 C 2.78125 -0.59375 2.65625 -0.578125 2.46875 -0.578125 C 2.046875 -0.578125 1.9375 -0.6875 1.9375 -1.109375 L 1.9375 -5.25 L 2.921875 -5.25 Z M 2.921875 -6.03125 "/>
</symbol>
<symbol overflow="visible" id="glyph1-4">
<path style="stroke:none;" d=""/>
</symbol>
<symbol overflow="visible" id="glyph1-5">
<path style="stroke:none;" d="M 0.625 2.5 L 1.59375 2.5 L 1.59375 -0.625 C 2.09375 -0.015625 2.65625 0.265625 3.4375 0.265625 C 5 0.265625 6.015625 -0.984375 6.015625 -2.90625 C 6.015625 -4.9375 5.03125 -6.203125 3.421875 -6.203125 C 2.609375 -6.203125 1.953125 -5.828125 1.5 -5.125 L 1.5 -6.03125 L 0.625 -6.03125 Z M 3.265625 -5.296875 C 4.328125 -5.296875 5.015625 -4.375 5.015625 -2.9375 C 5.015625 -1.5625 4.3125 -0.625 3.265625 -0.625 C 2.25 -0.625 1.59375 -1.546875 1.59375 -2.96875 C 1.59375 -4.375 2.25 -5.296875 3.265625 -5.296875 Z M 3.265625 -5.296875 "/>
</symbol>
<symbol overflow="visible" id="glyph1-6">
<path style="stroke:none;" d="M 5.90625 -2.6875 C 5.90625 -3.609375 5.828125 -4.15625 5.65625 -4.609375 C 5.265625 -5.59375 4.34375 -6.203125 3.21875 -6.203125 C 1.546875 -6.203125 0.453125 -4.921875 0.453125 -2.9375 C 0.453125 -0.9375 1.5 0.265625 3.203125 0.265625 C 4.578125 0.265625 5.53125 -0.515625 5.765625 -1.828125 L 4.8125 -1.828125 C 4.546875 -1.03125 4 -0.625 3.234375 -0.625 C 2.625 -0.625 2.109375 -0.890625 1.78125 -1.40625 C 1.546875 -1.75 1.46875 -2.09375 1.453125 -2.6875 Z M 1.484375 -3.46875 C 1.5625 -4.59375 2.25 -5.3125 3.203125 -5.3125 C 4.1875 -5.3125 4.859375 -4.546875 4.859375 -3.46875 Z M 1.484375 -3.46875 "/>
</symbol>
<symbol overflow="visible" id="glyph1-7">
<path style="stroke:none;" d="M 0.796875 -6.03125 L 0.796875 0 L 1.765625 0 L 1.765625 -3.125 C 1.765625 -4.578125 2.375 -5.21875 3.6875 -5.1875 L 3.6875 -6.15625 C 3.53125 -6.1875 3.4375 -6.203125 3.328125 -6.203125 C 2.703125 -6.203125 2.234375 -5.828125 1.671875 -4.9375 L 1.671875 -6.03125 Z M 0.796875 -6.03125 "/>
</symbol>
<symbol overflow="visible" id="glyph1-8">
<path style="stroke:none;" d="M 5.421875 -4 C 5.375 -4.59375 5.25 -4.96875 5.015625 -5.296875 C 4.59375 -5.859375 3.875 -6.203125 3.03125 -6.203125 C 1.40625 -6.203125 0.359375 -4.90625 0.359375 -2.90625 C 0.359375 -0.96875 1.390625 0.265625 3.03125 0.265625 C 4.46875 0.265625 5.375 -0.59375 5.484375 -2.0625 L 4.515625 -2.0625 C 4.359375 -1.109375 3.859375 -0.625 3.046875 -0.625 C 1.984375 -0.625 1.359375 -1.484375 1.359375 -2.90625 C 1.359375 -4.421875 1.984375 -5.3125 3.03125 -5.3125 C 3.828125 -5.3125 4.328125 -4.84375 4.453125 -4 Z M 5.421875 -4 "/>
</symbol>
<symbol overflow="visible" id="glyph1-9">
<path style="stroke:none;" d="M 0.8125 -6.03125 L 0.8125 0 L 1.765625 0 L 1.765625 -3.328125 C 1.765625 -4.546875 2.421875 -5.359375 3.40625 -5.359375 C 4.15625 -5.359375 4.640625 -4.90625 4.640625 -4.171875 L 4.640625 0 L 5.59375 0 L 5.59375 -4.546875 C 5.59375 -5.546875 4.859375 -6.203125 3.6875 -6.203125 C 2.796875 -6.203125 2.21875 -5.859375 1.6875 -5.015625 L 1.6875 -6.03125 Z M 0.8125 -6.03125 "/>
</symbol>
<symbol overflow="visible" id="glyph1-10">
<path style="stroke:none;" d="M 6.15625 -0.5625 C 6.046875 -0.546875 6 -0.546875 5.953125 -0.546875 C 5.609375 -0.546875 5.421875 -0.71875 5.421875 -1.015625 L 5.421875 -4.546875 C 5.421875 -5.625 4.640625 -6.203125 3.15625 -6.203125 C 2.28125 -6.203125 1.578125 -5.953125 1.15625 -5.5 C 0.890625 -5.1875 0.765625 -4.84375 0.75 -4.25 L 1.71875 -4.25 C 1.796875 -4.984375 2.234375 -5.3125 3.125 -5.3125 C 4 -5.3125 4.46875 -4.984375 4.46875 -4.421875 L 4.46875 -4.15625 C 4.46875 -3.75 4.25 -3.59375 3.46875 -3.5 C 2.109375 -3.328125 1.90625 -3.28125 1.546875 -3.125 C 0.84375 -2.828125 0.484375 -2.296875 0.484375 -1.515625 C 0.484375 -0.421875 1.234375 0.265625 2.46875 0.265625 C 3.21875 0.265625 3.828125 0 4.515625 -0.625 C 4.578125 0 4.875 0.265625 5.5 0.265625 C 5.703125 0.265625 5.828125 0.234375 6.15625 0.15625 Z M 4.46875 -1.890625 C 4.46875 -1.578125 4.375 -1.375 4.09375 -1.109375 C 3.703125 -0.765625 3.234375 -0.578125 2.671875 -0.578125 C 1.921875 -0.578125 1.484375 -0.9375 1.484375 -1.546875 C 1.484375 -2.171875 1.890625 -2.5 2.9375 -2.640625 C 3.953125 -2.78125 4.15625 -2.828125 4.46875 -2.984375 Z M 4.46875 -1.890625 "/>
</symbol>
<symbol overflow="visible" id="glyph1-11">
<path style="stroke:none;" d="M 4.640625 -6.03125 L 4.640625 -5.15625 C 4.15625 -5.875 3.640625 -6.203125 2.875 -6.203125 C 1.421875 -6.203125 0.40625 -4.84375 0.40625 -2.90625 C 0.40625 -1.890625 0.640625 -1.15625 1.15625 -0.546875 C 1.609375 -0.015625 2.1875 0.265625 2.8125 0.265625 C 3.53125 0.265625 4.046875 -0.0625 4.546875 -0.8125 L 4.546875 -0.5 C 4.546875 1.109375 4.109375 1.703125 2.90625 1.703125 C 2.09375 1.703125 1.671875 1.375 1.578125 0.6875 L 0.59375 0.6875 C 0.6875 1.8125 1.578125 2.5 2.890625 2.5 C 3.765625 2.5 4.515625 2.21875 4.90625 1.734375 C 5.359375 1.171875 5.53125 0.421875 5.53125 -0.984375 L 5.53125 -6.03125 Z M 2.96875 -5.3125 C 3.984375 -5.3125 4.546875 -4.46875 4.546875 -2.9375 C 4.546875 -1.46875 3.96875 -0.625 2.96875 -0.625 C 1.984375 -0.625 1.40625 -1.484375 1.40625 -2.96875 C 1.40625 -4.4375 1.984375 -5.3125 2.96875 -5.3125 Z M 2.96875 -5.3125 "/>
</symbol>
<symbol overflow="visible" id="glyph1-12">
<path style="stroke:none;" d="M 3.125 -6.203125 C 1.421875 -6.203125 0.40625 -4.984375 0.40625 -2.96875 C 0.40625 -0.9375 1.421875 0.265625 3.140625 0.265625 C 4.84375 0.265625 5.859375 -0.9375 5.859375 -2.921875 C 5.859375 -5.015625 4.875 -6.203125 3.125 -6.203125 Z M 3.140625 -5.3125 C 4.21875 -5.3125 4.859375 -4.421875 4.859375 -2.9375 C 4.859375 -1.5 4.203125 -0.625 3.140625 -0.625 C 2.0625 -0.625 1.421875 -1.5 1.421875 -2.96875 C 1.421875 -4.421875 2.0625 -5.3125 3.140625 -5.3125 Z M 3.140625 -5.3125 "/>
</symbol>
<symbol overflow="visible" id="glyph1-13">
<path style="stroke:none;" d="M 2.96875 -6.03125 L 1.96875 -6.03125 L 1.96875 -6.96875 C 1.96875 -7.375 2.1875 -7.578125 2.640625 -7.578125 C 2.71875 -7.578125 2.75 -7.578125 2.96875 -7.5625 L 2.96875 -8.359375 C 2.75 -8.40625 2.625 -8.421875 2.421875 -8.421875 C 1.546875 -8.421875 1.015625 -7.90625 1.015625 -7.046875 L 1.015625 -6.03125 L 0.203125 -6.03125 L 0.203125 -5.25 L 1.015625 -5.25 L 1.015625 0 L 1.96875 0 L 1.96875 -5.25 L 2.96875 -5.25 Z M 2.96875 -6.03125 "/>
</symbol>
<symbol overflow="visible" id="glyph1-14">
<path style="stroke:none;" d="M 1.75 -8.390625 L 0.78125 -8.390625 L 0.78125 0 L 1.75 0 Z M 1.75 -8.390625 "/>
</symbol>
<symbol overflow="visible" id="glyph1-15">
<path style="stroke:none;" d="M 0.8125 -6.03125 L 0.8125 0 L 1.765625 0 L 1.765625 -3.78125 C 1.765625 -4.65625 2.40625 -5.359375 3.1875 -5.359375 C 3.90625 -5.359375 4.296875 -4.921875 4.296875 -4.15625 L 4.296875 0 L 5.265625 0 L 5.265625 -3.78125 C 5.265625 -4.65625 5.90625 -5.359375 6.6875 -5.359375 C 7.390625 -5.359375 7.796875 -4.90625 7.796875 -4.15625 L 7.796875 0 L 8.765625 0 L 8.765625 -4.515625 C 8.765625 -5.59375 8.140625 -6.203125 7.015625 -6.203125 C 6.203125 -6.203125 5.734375 -5.953125 5.15625 -5.28125 C 4.8125 -5.921875 4.328125 -6.203125 3.546875 -6.203125 C 2.734375 -6.203125 2.203125 -5.90625 1.6875 -5.171875 L 1.6875 -6.03125 Z M 0.8125 -6.03125 "/>
</symbol>
<symbol overflow="visible" id="glyph1-16">
<path style="stroke:none;" d="M 5.546875 0 L 5.546875 -6.03125 L 4.59375 -6.03125 L 4.59375 -2.609375 C 4.59375 -1.375 3.9375 -0.578125 2.9375 -0.578125 C 2.1875 -0.578125 1.703125 -1.03125 1.703125 -1.765625 L 1.703125 -6.03125 L 0.75 -6.03125 L 0.75 -1.375 C 0.75 -0.375 1.5 0.265625 2.671875 0.265625 C 3.546875 0.265625 4.109375 -0.046875 4.6875 -0.84375 L 4.6875 0 Z M 5.546875 0 "/>
</symbol>
<symbol overflow="visible" id="glyph1-17">
<path style="stroke:none;" d="M 5.6875 -8.390625 L 4.734375 -8.390625 L 4.734375 -5.265625 C 4.328125 -5.875 3.6875 -6.203125 2.890625 -6.203125 C 1.328125 -6.203125 0.296875 -4.9375 0.296875 -3.03125 C 0.296875 -0.984375 1.28125 0.265625 2.921875 0.265625 C 3.75 0.265625 4.328125 -0.046875 4.84375 -0.796875 L 4.84375 0 L 5.6875 0 Z M 3.046875 -5.296875 C 4.078125 -5.296875 4.734375 -4.390625 4.734375 -2.9375 C 4.734375 -1.546875 4.078125 -0.625 3.0625 -0.625 C 2 -0.625 1.296875 -1.5625 1.296875 -2.96875 C 1.296875 -4.375 2 -5.296875 3.046875 -5.296875 Z M 3.046875 -5.296875 "/>
</symbol>
<symbol overflow="visible" id="glyph1-18">
<path style="stroke:none;" d="M 5.03125 -4.34375 C 5.03125 -5.53125 4.25 -6.203125 2.859375 -6.203125 C 1.453125 -6.203125 0.546875 -5.46875 0.546875 -4.359375 C 0.546875 -3.421875 1.03125 -2.96875 2.453125 -2.625 L 3.34375 -2.40625 C 4.015625 -2.25 4.28125 -2 4.28125 -1.578125 C 4.28125 -1 3.71875 -0.625 2.875 -0.625 C 2.359375 -0.625 1.921875 -0.765625 1.671875 -1.03125 C 1.53125 -1.203125 1.453125 -1.375 1.40625 -1.796875 L 0.390625 -1.796875 C 0.4375 -0.40625 1.21875 0.265625 2.796875 0.265625 C 4.3125 0.265625 5.28125 -0.484375 5.28125 -1.640625 C 5.28125 -2.546875 4.765625 -3.03125 3.578125 -3.328125 L 2.65625 -3.546875 C 1.875 -3.71875 1.546875 -3.984375 1.546875 -4.40625 C 1.546875 -4.96875 2.03125 -5.3125 2.8125 -5.3125 C 3.59375 -5.3125 4 -4.984375 4.03125 -4.34375 Z M 5.03125 -4.34375 "/>
</symbol>
</g>
<clipPath id="clip1">
  <path d="M 99 5.480469 L 101 5.480469 L 101 328 L 99 328 Z M 99 5.480469 "/>
</clipPath>
<clipPath id="clip2">
  <path d="M 158 5.480469 L 159 5.480469 L 159 328 L 158 328 Z M 158 5.480469 "/>
</clipPath>
<clipPath id="clip3">
  <path d="M 216 5.480469 L 218 5.480469 L 218 328 L 216 328 Z M 216 5.480469 "/>
</clipPath>
<clipPath id="clip4">
  <path d="M 61.589844 302 L 256.570312 302 L 256.570312 305 L 61.589844 305 Z M 61.589844 302 "/>
</clipPath>
<clipPath id="clip5">
  <path d="M 61.589844 263 L 256.570312 263 L 256.570312 266 L 61.589844 266 Z M 61.589844 263 "/>
</clipPath>
<clipPath id="clip6">
  <path d="M 61.589844 224 L 256.570312 224 L 256.570312 226 L 61.589844 226 Z M 61.589844 224 "/>
</clipPath>
<clipPath id="clip7">
  <path d="M 61.589844 185 L 256.570312 185 L 256.570312 187 L 61.589844 187 Z M 61.589844 185 "/>
</clipPath>
<clipPath id="clip8">
  <path d="M 61.589844 145 L 256.570312 145 L 256.570312 148 L 61.589844 148 Z M 61.589844 145 "/>
</clipPath>
<clipPath id="clip9">
  <path d="M 61.589844 106 L 256.570312 106 L 256.570312 109 L 61.589844 109 Z M 61.589844 106 "/>
</clipPath>
<clipPath id="clip10">
  <path d="M 61.589844 67 L 256.570312 67 L 256.570312 69 L 61.589844 69 Z M 61.589844 67 "/>
</clipPath>
<clipPath id="clip11">
  <path d="M 61.589844 28 L 256.570312 28 L 256.570312 30 L 61.589844 30 Z M 61.589844 28 "/>
</clipPath>
<clipPath id="clip12">
  <path d="M 69 5.480469 L 72 5.480469 L 72 328 L 69 328 Z M 69 5.480469 "/>
</clipPath>
<clipPath id="clip13">
  <path d="M 128 5.480469 L 130 5.480469 L 130 328 L 128 328 Z M 128 5.480469 "/>
</clipPath>
<clipPath id="clip14">
  <path d="M 186 5.480469 L 189 5.480469 L 189 328 L 186 328 Z M 186 5.480469 "/>
</clipPath>
<clipPath id="clip15">
  <path d="M 245 5.480469 L 248 5.480469 L 248 328 L 245 328 Z M 245 5.480469 "/>
</clipPath>
</defs>
<g id="surface7251">
<g clip-path="url(#clip1)" clip-rule="nonzero">
<path style="fill:none;stroke-width:0.711319;stroke-linecap:butt;stroke-linejoin:round;stroke:rgb(92.156863%,92.156863%,92.156863%);stroke-opacity:1;stroke-miterlimit:10;" d="M 99.730469 327.152344 L 99.730469 5.480469 "/>
</g>
<g clip-path="url(#clip2)" clip-rule="nonzero">
<path style="fill:none;stroke-width:0.711319;stroke-linecap:butt;stroke-linejoin:round;stroke:rgb(92.156863%,92.156863%,92.156863%);stroke-opacity:1;stroke-miterlimit:10;" d="M 158.375 327.152344 L 158.375 5.480469 "/>
</g>
<g clip-path="url(#clip3)" clip-rule="nonzero">
<path style="fill:none;stroke-width:0.711319;stroke-linecap:butt;stroke-linejoin:round;stroke:rgb(92.156863%,92.156863%,92.156863%);stroke-opacity:1;stroke-miterlimit:10;" d="M 217.019531 327.152344 L 217.019531 5.480469 "/>
</g>
<g clip-path="url(#clip4)" clip-rule="nonzero">
<path style="fill:none;stroke-width:1.422638;stroke-linecap:butt;stroke-linejoin:round;stroke:rgb(92.156863%,92.156863%,92.156863%);stroke-opacity:1;stroke-miterlimit:10;" d="M 61.589844 303.613281 L 255.570312 303.613281 "/>
</g>
<g clip-path="url(#clip5)" clip-rule="nonzero">
<path style="fill:none;stroke-width:1.422638;stroke-linecap:butt;stroke-linejoin:round;stroke:rgb(92.156863%,92.156863%,92.156863%);stroke-opacity:1;stroke-miterlimit:10;" d="M 61.589844 264.386719 L 255.570312 264.386719 "/>
</g>
<g clip-path="url(#clip6)" clip-rule="nonzero">
<path style="fill:none;stroke-width:1.422638;stroke-linecap:butt;stroke-linejoin:round;stroke:rgb(92.156863%,92.156863%,92.156863%);stroke-opacity:1;stroke-miterlimit:10;" d="M 61.589844 225.15625 L 255.570312 225.15625 "/>
</g>
<g clip-path="url(#clip7)" clip-rule="nonzero">
<path style="fill:none;stroke-width:1.422638;stroke-linecap:butt;stroke-linejoin:round;stroke:rgb(92.156863%,92.156863%,92.156863%);stroke-opacity:1;stroke-miterlimit:10;" d="M 61.589844 185.929688 L 255.570312 185.929688 "/>
</g>
<g clip-path="url(#clip8)" clip-rule="nonzero">
<path style="fill:none;stroke-width:1.422638;stroke-linecap:butt;stroke-linejoin:round;stroke:rgb(92.156863%,92.156863%,92.156863%);stroke-opacity:1;stroke-miterlimit:10;" d="M 61.589844 146.703125 L 255.570312 146.703125 "/>
</g>
<g clip-path="url(#clip9)" clip-rule="nonzero">
<path style="fill:none;stroke-width:1.422638;stroke-linecap:butt;stroke-linejoin:round;stroke:rgb(92.156863%,92.156863%,92.156863%);stroke-opacity:1;stroke-miterlimit:10;" d="M 61.589844 107.472656 L 255.570312 107.472656 "/>
</g>
<g clip-path="url(#clip10)" clip-rule="nonzero">
<path style="fill:none;stroke-width:1.422638;stroke-linecap:butt;stroke-linejoin:round;stroke:rgb(92.156863%,92.156863%,92.156863%);stroke-opacity:1;stroke-miterlimit:10;" d="M 61.589844 68.246094 L 255.570312 68.246094 "/>
</g>
<g clip-path="url(#clip11)" clip-rule="nonzero">
<path style="fill:none;stroke-width:1.422638;stroke-linecap:butt;stroke-linejoin:round;stroke:rgb(92.156863%,92.156863%,92.156863%);stroke-opacity:1;stroke-miterlimit:10;" d="M 61.589844 29.015625 L 255.570312 29.015625 "/>
</g>
<g clip-path="url(#clip12)" clip-rule="nonzero">
<path style="fill:none;stroke-width:1.422638;stroke-linecap:butt;stroke-linejoin:round;stroke:rgb(92.156863%,92.156863%,92.156863%);stroke-opacity:1;stroke-miterlimit:10;" d="M 70.40625 327.152344 L 70.40625 5.480469 "/>
</g>
<g clip-path="url(#clip13)" clip-rule="nonzero">
<path style="fill:none;stroke-width:1.422638;stroke-linecap:butt;stroke-linejoin:round;stroke:rgb(92.156863%,92.156863%,92.156863%);stroke-opacity:1;stroke-miterlimit:10;" d="M 129.050781 327.152344 L 129.050781 5.480469 "/>
</g>
<g clip-path="url(#clip14)" clip-rule="nonzero">
<path style="fill:none;stroke-width:1.422638;stroke-linecap:butt;stroke-linejoin:round;stroke:rgb(92.156863%,92.156863%,92.156863%);stroke-opacity:1;stroke-miterlimit:10;" d="M 187.695312 327.152344 L 187.695312 5.480469 "/>
</g>
<g clip-path="url(#clip15)" clip-rule="nonzero">
<path style="fill:none;stroke-width:1.422638;stroke-linecap:butt;stroke-linejoin:round;stroke:rgb(92.156863%,92.156863%,92.156863%);stroke-opacity:1;stroke-miterlimit:10;" d="M 246.339844 327.152344 L 246.339844 5.480469 "/>
</g>
<path style=" stroke:none;fill-rule:nonzero;fill:rgb(97.254902%,46.27451%,42.745098%);fill-opacity:1;" d="M 70.40625 285.960938 L 107.316406 285.960938 L 107.316406 321.265625 L 70.40625 321.265625 Z M 70.40625 285.960938 "/>
<path style=" stroke:none;fill-rule:nonzero;fill:rgb(0%,74.901961%,76.862745%);fill-opacity:1;" d="M 70.40625 246.734375 L 115.519531 246.734375 L 115.519531 282.039062 L 70.40625 282.039062 Z M 70.40625 246.734375 "/>
<path style=" stroke:none;fill-rule:nonzero;fill:rgb(0%,74.901961%,76.862745%);fill-opacity:1;" d="M 70.40625 207.503906 L 123.71875 207.503906 L 123.71875 242.808594 L 70.40625 242.808594 Z M 70.40625 207.503906 "/>
<path style=" stroke:none;fill-rule:nonzero;fill:rgb(97.254902%,46.27451%,42.745098%);fill-opacity:1;" d="M 70.40625 168.277344 L 131.921875 168.277344 L 131.921875 203.582031 L 70.40625 203.582031 Z M 70.40625 168.277344 "/>
<path style=" stroke:none;fill-rule:nonzero;fill:rgb(97.254902%,46.27451%,42.745098%);fill-opacity:1;" d="M 70.40625 129.046875 L 144.226562 129.046875 L 144.226562 164.351562 L 70.40625 164.351562 Z M 70.40625 129.046875 "/>
<path style=" stroke:none;fill-rule:nonzero;fill:rgb(0%,74.901961%,76.862745%);fill-opacity:1;" d="M 70.40625 89.820312 L 189.335938 89.820312 L 189.335938 125.125 L 70.40625 125.125 Z M 70.40625 89.820312 "/>
<path style=" stroke:none;fill-rule:nonzero;fill:rgb(97.254902%,46.27451%,42.745098%);fill-opacity:1;" d="M 70.40625 50.59375 L 209.84375 50.59375 L 209.84375 85.898438 L 70.40625 85.898438 Z M 70.40625 50.59375 "/>
<path style=" stroke:none;fill-rule:nonzero;fill:rgb(97.254902%,46.27451%,42.745098%);fill-opacity:1;" d="M 70.40625 11.363281 L 246.75 11.363281 L 246.75 46.667969 L 70.40625 46.667969 Z M 70.40625 11.363281 "/>
<g style="fill:rgb(30.196078%,30.196078%,30.196078%);fill-opacity:1;">
  <use xlink:href="#glyph0-1" x="40.640625" y="307.003906"/>
  <use xlink:href="#glyph0-2" x="47.355225" y="307.003906"/>
  <use xlink:href="#glyph0-3" x="52.526025" y="307.003906"/>
  <use xlink:href="#glyph0-4" x="54.590625" y="307.003906"/>
</g>
<g style="fill:rgb(30.196078%,30.196078%,30.196078%);fill-opacity:1;">
  <use xlink:href="#glyph0-5" x="5.476562" y="267.777344"/>
  <use xlink:href="#glyph0-2" x="13.223463" y="267.777344"/>
  <use xlink:href="#glyph0-6" x="18.394262" y="267.777344"/>
  <use xlink:href="#glyph0-7" x="23.565062" y="267.777344"/>
  <use xlink:href="#glyph0-8" x="28.735862" y="267.777344"/>
  <use xlink:href="#glyph0-9" x="33.906663" y="267.777344"/>
  <use xlink:href="#glyph0-10" x="38.556663" y="267.777344"/>
  <use xlink:href="#glyph0-11" x="41.142063" y="267.777344"/>
  <use xlink:href="#glyph0-11" x="46.312863" y="267.777344"/>
  <use xlink:href="#glyph0-6" x="51.483663" y="267.777344"/>
</g>
<g style="fill:rgb(30.196078%,30.196078%,30.196078%);fill-opacity:1;">
  <use xlink:href="#glyph0-12" x="15.820312" y="228.546875"/>
  <use xlink:href="#glyph0-13" x="20.991112" y="228.546875"/>
  <use xlink:href="#glyph0-14" x="27.705713" y="228.546875"/>
  <use xlink:href="#glyph0-15" x="33.908813" y="228.546875"/>
  <use xlink:href="#glyph0-16" x="41.144213" y="228.546875"/>
  <use xlink:href="#glyph0-17" x="46.315013" y="228.546875"/>
  <use xlink:href="#glyph0-17" x="51.485813" y="228.546875"/>
</g>
<g style="fill:rgb(30.196078%,30.196078%,30.196078%);fill-opacity:1;">
  <use xlink:href="#glyph0-18" x="28.757812" y="189.320312"/>
  <use xlink:href="#glyph0-19" x="34.440112" y="189.320312"/>
  <use xlink:href="#glyph0-20" x="40.643212" y="189.320312"/>
  <use xlink:href="#glyph0-21" x="43.740112" y="189.320312"/>
  <use xlink:href="#glyph0-22" x="49.943212" y="189.320312"/>
</g>
<g style="fill:rgb(30.196078%,30.196078%,30.196078%);fill-opacity:1;">
  <use xlink:href="#glyph0-22" x="29.269531" y="150.089844"/>
  <use xlink:href="#glyph0-23" x="35.984131" y="150.089844"/>
  <use xlink:href="#glyph0-20" x="43.219531" y="150.089844"/>
  <use xlink:href="#glyph0-24" x="46.316431" y="150.089844"/>
  <use xlink:href="#glyph0-16" x="51.487231" y="150.089844"/>
</g>
<g style="fill:rgb(30.196078%,30.196078%,30.196078%);fill-opacity:1;">
  <use xlink:href="#glyph0-5" x="26.160156" y="110.863281"/>
  <use xlink:href="#glyph0-2" x="33.907056" y="110.863281"/>
  <use xlink:href="#glyph0-10" x="39.077856" y="110.863281"/>
  <use xlink:href="#glyph0-8" x="41.663256" y="110.863281"/>
  <use xlink:href="#glyph0-25" x="46.834056" y="110.863281"/>
  <use xlink:href="#glyph0-11" x="51.484056" y="110.863281"/>
</g>
<g style="fill:rgb(30.196078%,30.196078%,30.196078%);fill-opacity:1;">
  <use xlink:href="#glyph0-22" x="38.566406" y="71.632812"/>
  <use xlink:href="#glyph0-19" x="45.281006" y="71.632812"/>
  <use xlink:href="#glyph0-12" x="51.484106" y="71.632812"/>
</g>
<g style="fill:rgb(30.196078%,30.196078%,30.196078%);fill-opacity:1;">
  <use xlink:href="#glyph0-26" x="13.773438" y="32.40625"/>
  <use xlink:href="#glyph0-27" x="19.976537" y="32.40625"/>
  <use xlink:href="#glyph0-20" x="26.691137" y="32.40625"/>
  <use xlink:href="#glyph0-22" x="29.788038" y="32.40625"/>
  <use xlink:href="#glyph0-28" x="36.502637" y="32.40625"/>
  <use xlink:href="#glyph0-12" x="43.217237" y="32.40625"/>
  <use xlink:href="#glyph0-20" x="48.388037" y="32.40625"/>
  <use xlink:href="#glyph0-29" x="51.484937" y="32.40625"/>
</g>
<g style="fill:rgb(30.196078%,30.196078%,30.196078%);fill-opacity:1;">
  <use xlink:href="#glyph0-30" x="67.820312" y="338.863281"/>
</g>
<g style="fill:rgb(30.196078%,30.196078%,30.196078%);fill-opacity:1;">
  <use xlink:href="#glyph0-29" x="126.464844" y="338.863281"/>
</g>
<g style="fill:rgb(30.196078%,30.196078%,30.196078%);fill-opacity:1;">
  <use xlink:href="#glyph0-31" x="185.109375" y="338.863281"/>
</g>
<g style="fill:rgb(30.196078%,30.196078%,30.196078%);fill-opacity:1;">
  <use xlink:href="#glyph0-17" x="243.753906" y="338.863281"/>
</g>
<g style="fill:rgb(0%,0%,0%);fill-opacity:1;">
  <use xlink:href="#glyph1-1" x="77.078125" y="352.011719"/>
  <use xlink:href="#glyph1-2" x="83.472125" y="352.011719"/>
  <use xlink:href="#glyph1-3" x="86.025125" y="352.011719"/>
  <use xlink:href="#glyph1-4" x="89.222125" y="352.011719"/>
  <use xlink:href="#glyph1-5" x="92.419125" y="352.011719"/>
  <use xlink:href="#glyph1-6" x="98.813125" y="352.011719"/>
  <use xlink:href="#glyph1-7" x="105.207125" y="352.011719"/>
  <use xlink:href="#glyph1-8" x="109.036625" y="352.011719"/>
  <use xlink:href="#glyph1-6" x="114.786625" y="352.011719"/>
  <use xlink:href="#glyph1-9" x="121.180625" y="352.011719"/>
  <use xlink:href="#glyph1-3" x="127.574625" y="352.011719"/>
  <use xlink:href="#glyph1-10" x="130.771625" y="352.011719"/>
  <use xlink:href="#glyph1-11" x="137.165625" y="352.011719"/>
  <use xlink:href="#glyph1-6" x="143.559625" y="352.011719"/>
  <use xlink:href="#glyph1-4" x="149.953625" y="352.011719"/>
  <use xlink:href="#glyph1-12" x="153.150625" y="352.011719"/>
  <use xlink:href="#glyph1-13" x="159.544625" y="352.011719"/>
  <use xlink:href="#glyph1-4" x="162.741625" y="352.011719"/>
  <use xlink:href="#glyph1-10" x="165.938625" y="352.011719"/>
  <use xlink:href="#glyph1-14" x="172.332625" y="352.011719"/>
  <use xlink:href="#glyph1-14" x="174.885625" y="352.011719"/>
  <use xlink:href="#glyph1-4" x="177.438625" y="352.011719"/>
  <use xlink:href="#glyph1-8" x="180.635625" y="352.011719"/>
  <use xlink:href="#glyph1-12" x="186.385625" y="352.011719"/>
  <use xlink:href="#glyph1-15" x="192.779625" y="352.011719"/>
  <use xlink:href="#glyph1-5" x="202.359125" y="352.011719"/>
  <use xlink:href="#glyph1-12" x="208.753125" y="352.011719"/>
  <use xlink:href="#glyph1-16" x="215.147125" y="352.011719"/>
  <use xlink:href="#glyph1-9" x="221.541125" y="352.011719"/>
  <use xlink:href="#glyph1-17" x="227.935125" y="352.011719"/>
  <use xlink:href="#glyph1-18" x="234.329125" y="352.011719"/>
</g>
<path style=" stroke:none;fill-rule:nonzero;fill:rgb(97.254902%,46.27451%,42.745098%);fill-opacity:1;" d="M 272.714844 152.484375 L 288.578125 152.484375 L 288.578125 168.347656 L 272.714844 168.347656 Z M 272.714844 152.484375 "/>
<path style=" stroke:none;fill-rule:nonzero;fill:rgb(0%,74.901961%,76.862745%);fill-opacity:1;" d="M 272.714844 169.765625 L 288.578125 169.765625 L 288.578125 185.628906 L 272.714844 185.628906 Z M 272.714844 169.765625 "/>
<g style="fill:rgb(0%,0%,0%);fill-opacity:1;">
  <use xlink:href="#glyph0-6" x="294.765625" y="163.804688"/>
  <use xlink:href="#glyph0-8" x="299.936425" y="163.804688"/>
  <use xlink:href="#glyph0-6" x="305.107225" y="163.804688"/>
  <use xlink:href="#glyph0-20" x="310.278025" y="163.804688"/>
  <use xlink:href="#glyph0-32" x="313.374925" y="163.804688"/>
  <use xlink:href="#glyph0-11" x="316.471825" y="163.804688"/>
  <use xlink:href="#glyph0-33" x="321.642625" y="163.804688"/>
  <use xlink:href="#glyph0-2" x="323.707225" y="163.804688"/>
  <use xlink:href="#glyph0-34" x="328.878025" y="163.804688"/>
  <use xlink:href="#glyph0-9" x="334.048825" y="163.804688"/>
  <use xlink:href="#glyph0-11" x="338.698825" y="163.804688"/>
  <use xlink:href="#glyph0-35" x="343.869625" y="163.804688"/>
</g>
<g style="fill:rgb(0%,0%,0%);fill-opacity:1;">
  <use xlink:href="#glyph0-32" x="294.765625" y="181.085938"/>
  <use xlink:href="#glyph0-11" x="297.862525" y="181.085938"/>
  <use xlink:href="#glyph0-33" x="303.033325" y="181.085938"/>
  <use xlink:href="#glyph0-2" x="305.097925" y="181.085938"/>
  <use xlink:href="#glyph0-34" x="310.268725" y="181.085938"/>
  <use xlink:href="#glyph0-9" x="315.439525" y="181.085938"/>
  <use xlink:href="#glyph0-11" x="320.089525" y="181.085938"/>
  <use xlink:href="#glyph0-35" x="325.260325" y="181.085938"/>
</g>
</g>
</svg>
