<?xml version="1.0" encoding="UTF-8"?>
<svg xmlns="http://www.w3.org/2000/svg" xmlns:xlink="http://www.w3.org/1999/xlink" width="576pt" height="576pt" viewBox="0 0 576 576" version="1.1">
<defs>
<g>
<symbol overflow="visible" id="glyph0-0">
<path style="stroke:none;" d=""/>
</symbol>
<symbol overflow="visible" id="glyph0-1">
<path style="stroke:none;" d="M 2.9375 -3.625 L 5.6875 -3.625 C 6.203125 -3.625 6.53125 -3.515625 6.703125 -3.25 C 6.8125 -3.109375 6.859375 -2.9375 6.859375 -2.765625 C 6.859375 -2.5625 6.828125 -2.328125 6.765625 -2.0625 C 6.546875 -1.15625 6.546875 -1.15625 6.53125 -1 C 6.5 -0.859375 6.484375 -0.703125 6.484375 -0.546875 C 6.484375 -0.359375 6.5 -0.234375 6.53125 0 L 7.84375 0 L 7.890625 -0.265625 C 7.78125 -0.375 7.75 -0.4375 7.703125 -0.59375 C 7.671875 -0.6875 7.65625 -0.796875 7.65625 -0.875 C 7.65625 -1 7.671875 -1.203125 7.71875 -1.453125 C 7.9375 -2.671875 7.96875 -2.8125 7.96875 -3.046875 C 7.96875 -3.5625 7.8125 -3.796875 7.28125 -4.15625 C 7.71875 -4.40625 7.90625 -4.53125 8.125 -4.71875 C 8.578125 -5.15625 8.890625 -5.921875 8.890625 -6.640625 C 8.890625 -7.859375 8.21875 -8.421875 6.75 -8.421875 L 2.859375 -8.421875 L 1.078125 0 L 2.15625 0 Z M 3.125 -4.578125 L 3.75 -7.46875 L 6.40625 -7.46875 C 7.015625 -7.46875 7.328125 -7.390625 7.546875 -7.140625 C 7.6875 -6.984375 7.78125 -6.71875 7.78125 -6.4375 C 7.78125 -6 7.625 -5.515625 7.359375 -5.1875 C 7.03125 -4.765625 6.53125 -4.578125 5.796875 -4.578125 Z M 3.125 -4.578125 "/>
</symbol>
<symbol overflow="visible" id="glyph0-2">
<path style="stroke:none;" d="M 0.078125 2.453125 L 1.046875 2.453125 L 1.75 -0.78125 C 2.015625 -0.21875 2.296875 0.0625 2.78125 0.1875 C 2.984375 0.25 3.171875 0.265625 3.390625 0.265625 C 4.296875 0.265625 5.15625 -0.15625 5.75 -0.859375 C 6.375 -1.640625 6.765625 -2.828125 6.765625 -3.96875 C 6.765625 -5.359375 6 -6.21875 4.75 -6.21875 C 3.859375 -6.21875 2.9375 -5.734375 2.625 -5.078125 L 2.828125 -6.046875 L 1.890625 -6.046875 Z M 4.375 -5.328125 C 4.9375 -5.328125 5.375 -5.078125 5.578125 -4.625 C 5.6875 -4.359375 5.75 -4.078125 5.75 -3.734375 C 5.75 -3.234375 5.625 -2.65625 5.40625 -2.125 C 5.109375 -1.453125 4.734375 -1.015625 4.25 -0.78125 C 4 -0.671875 3.765625 -0.625 3.484375 -0.625 C 2.625 -0.625 2.109375 -1.203125 2.109375 -2.125 C 2.109375 -3.4375 2.765625 -4.75 3.640625 -5.171875 C 3.875 -5.28125 4.09375 -5.328125 4.375 -5.328125 Z M 4.375 -5.328125 "/>
</symbol>
<symbol overflow="visible" id="glyph1-0">
<path style="stroke:none;" d=""/>
</symbol>
<symbol overflow="visible" id="glyph1-1">
<path style="stroke:none;" d="M 4.171875 -0.71875 L 1.09375 -0.71875 C 1.171875 -1.203125 1.4375 -1.515625 2.15625 -1.953125 L 2.96875 -2.421875 C 3.78125 -2.875 4.203125 -3.484375 4.203125 -4.21875 C 4.203125 -4.703125 4.015625 -5.171875 3.671875 -5.5 C 3.3125 -5.8125 2.890625 -5.953125 2.34375 -5.953125 C 1.59375 -5.953125 1.046875 -5.6875 0.71875 -5.171875 C 0.515625 -4.859375 0.421875 -4.5 0.40625 -3.890625 L 1.140625 -3.890625 C 1.15625 -4.296875 1.203125 -4.53125 1.3125 -4.734375 C 1.5 -5.09375 1.875 -5.3125 2.3125 -5.3125 C 2.96875 -5.3125 3.46875 -4.84375 3.46875 -4.203125 C 3.46875 -3.71875 3.1875 -3.3125 2.671875 -3.015625 L 1.921875 -2.5625 C 0.703125 -1.875 0.34375 -1.3125 0.28125 -0.015625 L 4.171875 -0.015625 Z M 4.171875 -0.71875 "/>
</symbol>
<symbol overflow="visible" id="glyph2-0">
<path style="stroke:none;" d=""/>
</symbol>
<symbol overflow="visible" id="glyph2-1">
<path style="stroke:none;" d=""/>
</symbol>
<symbol overflow="visible" id="glyph3-0">
<path style="stroke:none;" d=""/>
</symbol>
<symbol overflow="visible" id="glyph3-1">
<path style="stroke:none;" d="M 6.171875 -4.078125 L 0.578125 -4.078125 L 0.578125 -3.265625 L 6.171875 -3.265625 Z M 6.171875 -2.09375 L 0.578125 -2.09375 L 0.578125 -1.28125 L 6.171875 -1.28125 Z M 6.171875 -2.09375 "/>
</symbol>
<symbol overflow="visible" id="glyph3-2">
<path style="stroke:none;" d="M 3.78125 -2.015625 L 3.78125 0 L 4.796875 0 L 4.796875 -2.015625 L 6 -2.015625 L 6 -2.9375 L 4.796875 -2.9375 L 4.796875 -8.34375 L 4.046875 -8.34375 L 0.328125 -3.09375 L 0.328125 -2.015625 Z M 3.78125 -2.9375 L 1.21875 -2.9375 L 3.78125 -6.609375 Z M 3.78125 -2.9375 "/>
</symbol>
<symbol overflow="visible" id="glyph3-3">
<path style="stroke:none;" d="M 5.921875 -2.703125 C 5.921875 -3.625 5.859375 -4.1875 5.6875 -4.625 C 5.28125 -5.625 4.359375 -6.21875 3.234375 -6.21875 C 1.546875 -6.21875 0.46875 -4.9375 0.46875 -2.9375 C 0.46875 -0.953125 1.5 0.265625 3.203125 0.265625 C 4.59375 0.265625 5.546875 -0.515625 5.796875 -1.84375 L 4.828125 -1.84375 C 4.5625 -1.046875 4.015625 -0.625 3.25 -0.625 C 2.625 -0.625 2.109375 -0.90625 1.796875 -1.40625 C 1.5625 -1.75 1.484375 -2.09375 1.46875 -2.703125 Z M 1.484375 -3.484375 C 1.578125 -4.609375 2.25 -5.328125 3.21875 -5.328125 C 4.203125 -5.328125 4.890625 -4.578125 4.890625 -3.484375 Z M 1.484375 -3.484375 "/>
</symbol>
<symbol overflow="visible" id="glyph3-4">
<path style="stroke:none;" d="M 3.28125 -3.609375 L 0.53125 -3.609375 L 0.53125 -2.765625 L 3.28125 -2.765625 Z M 3.28125 -3.609375 "/>
</symbol>
<symbol overflow="visible" id="glyph3-5">
<path style="stroke:none;" d="M 3.171875 -8.34375 C 2.40625 -8.34375 1.71875 -8 1.296875 -7.4375 C 0.765625 -6.703125 0.5 -5.59375 0.5 -4.046875 C 0.5 -1.21875 1.421875 0.265625 3.171875 0.265625 C 4.90625 0.265625 5.859375 -1.21875 5.859375 -3.96875 C 5.859375 -5.59375 5.59375 -6.671875 5.0625 -7.4375 C 4.625 -8.015625 3.953125 -8.34375 3.171875 -8.34375 Z M 3.171875 -7.453125 C 4.265625 -7.453125 4.8125 -6.328125 4.8125 -4.0625 C 4.8125 -1.6875 4.28125 -0.578125 3.15625 -0.578125 C 2.078125 -0.578125 1.53125 -1.734375 1.53125 -4.03125 C 1.53125 -6.328125 2.078125 -7.453125 3.171875 -7.453125 Z M 3.171875 -7.453125 "/>
</symbol>
<symbol overflow="visible" id="glyph3-6">
<path style="stroke:none;" d="M 5.75 -6.171875 C 5.546875 -7.546875 4.671875 -8.34375 3.421875 -8.34375 C 2.53125 -8.34375 1.71875 -7.90625 1.234375 -7.15625 C 0.71875 -6.34375 0.5 -5.328125 0.5 -3.8125 C 0.5 -2.40625 0.6875 -1.515625 1.1875 -0.78125 C 1.625 -0.09375 2.34375 0.265625 3.25 0.265625 C 4.796875 0.265625 5.921875 -0.90625 5.921875 -2.53125 C 5.921875 -4.0625 4.890625 -5.15625 3.421875 -5.15625 C 2.609375 -5.15625 1.96875 -4.84375 1.53125 -4.234375 C 1.546875 -6.296875 2.1875 -7.453125 3.359375 -7.453125 C 4.078125 -7.453125 4.578125 -6.984375 4.734375 -6.171875 Z M 3.296875 -4.25 C 4.265625 -4.25 4.890625 -3.5625 4.890625 -2.453125 C 4.890625 -1.390625 4.1875 -0.640625 3.25 -0.640625 C 2.3125 -0.640625 1.59375 -1.4375 1.59375 -2.5 C 1.59375 -3.53125 2.28125 -4.25 3.296875 -4.25 Z M 3.296875 -4.25 "/>
</symbol>
<symbol overflow="visible" id="glyph3-7">
<path style="stroke:none;" d=""/>
</symbol>
<symbol overflow="visible" id="glyph3-8">
<path style="stroke:none;" d="M 2.203125 -1.203125 L 1 -1.203125 L 1 0 L 2.203125 0 Z M 2.203125 -1.203125 "/>
</symbol>
<symbol overflow="visible" id="glyph3-9">
<path style="stroke:none;" d="M 0.609375 -1.90625 C 0.8125 -0.546875 1.6875 0.265625 2.9375 0.265625 C 3.84375 0.265625 4.65625 -0.171875 5.140625 -0.921875 C 5.640625 -1.75 5.875 -2.765625 5.875 -4.265625 C 5.875 -5.6875 5.671875 -6.5625 5.1875 -7.3125 C 4.734375 -7.984375 4.015625 -8.34375 3.125 -8.34375 C 1.5625 -8.34375 0.4375 -7.1875 0.4375 -5.5625 C 0.4375 -4.03125 1.484375 -2.9375 2.953125 -2.9375 C 3.734375 -2.9375 4.3125 -3.21875 4.828125 -3.859375 C 4.8125 -1.78125 4.171875 -0.640625 3 -0.640625 C 2.28125 -0.640625 1.796875 -1.09375 1.625 -1.90625 Z M 3.109375 -7.453125 C 4.046875 -7.453125 4.765625 -6.65625 4.765625 -5.59375 C 4.765625 -4.5625 4.078125 -3.84375 3.078125 -3.84375 C 2.09375 -3.84375 1.484375 -4.53125 1.484375 -5.640625 C 1.484375 -6.703125 2.15625 -7.453125 3.109375 -7.453125 Z M 3.109375 -7.453125 "/>
</symbol>
<symbol overflow="visible" id="glyph3-10">
<path style="stroke:none;" d="M 4.515625 -4.40625 C 5.375 -4.921875 5.640625 -5.328125 5.640625 -6.125 C 5.640625 -7.4375 4.625 -8.34375 3.171875 -8.34375 C 1.734375 -8.34375 0.71875 -7.4375 0.71875 -6.125 C 0.71875 -5.328125 0.984375 -4.9375 1.828125 -4.40625 C 0.890625 -3.921875 0.421875 -3.25 0.421875 -2.328125 C 0.421875 -0.796875 1.546875 0.265625 3.171875 0.265625 C 4.796875 0.265625 5.921875 -0.796875 5.921875 -2.328125 C 5.921875 -3.25 5.46875 -3.921875 4.515625 -4.40625 Z M 3.171875 -7.453125 C 4.046875 -7.453125 4.59375 -6.921875 4.59375 -6.09375 C 4.59375 -5.3125 4.03125 -4.796875 3.171875 -4.796875 C 2.3125 -4.796875 1.75 -5.3125 1.75 -6.125 C 1.75 -6.921875 2.3125 -7.453125 3.171875 -7.453125 Z M 3.171875 -3.9375 C 4.1875 -3.9375 4.890625 -3.265625 4.890625 -2.296875 C 4.890625 -1.296875 4.203125 -0.640625 3.15625 -0.640625 C 2.15625 -0.640625 1.46875 -1.3125 1.46875 -2.28125 C 1.46875 -3.28125 2.140625 -3.9375 3.171875 -3.9375 Z M 3.171875 -3.9375 "/>
</symbol>
<symbol overflow="visible" id="glyph3-11">
<path style="stroke:none;" d="M 2.546875 -3.84375 L 3.109375 -3.84375 C 4.21875 -3.84375 4.796875 -3.328125 4.796875 -2.328125 C 4.796875 -1.265625 4.171875 -0.640625 3.125 -0.640625 C 2 -0.640625 1.453125 -1.203125 1.390625 -2.421875 L 0.375 -2.421875 C 0.421875 -1.75 0.53125 -1.3125 0.734375 -0.953125 C 1.15625 -0.140625 1.953125 0.265625 3.078125 0.265625 C 4.75 0.265625 5.84375 -0.75 5.84375 -2.328125 C 5.84375 -3.390625 5.4375 -3.96875 4.453125 -4.3125 C 5.21875 -4.625 5.59375 -5.203125 5.59375 -6.046875 C 5.59375 -7.484375 4.671875 -8.34375 3.109375 -8.34375 C 1.453125 -8.34375 0.578125 -7.421875 0.546875 -5.65625 L 1.5625 -5.65625 C 1.578125 -6.171875 1.609375 -6.453125 1.75 -6.703125 C 1.96875 -7.1875 2.484375 -7.453125 3.125 -7.453125 C 4.015625 -7.453125 4.5625 -6.921875 4.5625 -6.015625 C 4.5625 -5.421875 4.359375 -5.0625 3.90625 -4.875 C 3.625 -4.75 3.25 -4.71875 2.546875 -4.703125 Z M 2.546875 -3.84375 "/>
</symbol>
<symbol overflow="visible" id="glyph3-12">
<path style="stroke:none;" d="M 5.84375 -1 L 1.53125 -1 C 1.640625 -1.703125 2.015625 -2.140625 3.015625 -2.75 L 4.171875 -3.390625 C 5.3125 -4.03125 5.90625 -4.890625 5.90625 -5.90625 C 5.90625 -6.609375 5.625 -7.25 5.140625 -7.703125 C 4.65625 -8.140625 4.046875 -8.34375 3.28125 -8.34375 C 2.234375 -8.34375 1.46875 -7.984375 1.015625 -7.265625 C 0.734375 -6.828125 0.59375 -6.296875 0.578125 -5.46875 L 1.59375 -5.46875 C 1.625 -6.03125 1.703125 -6.359375 1.84375 -6.640625 C 2.09375 -7.140625 2.625 -7.453125 3.25 -7.453125 C 4.171875 -7.453125 4.859375 -6.796875 4.859375 -5.890625 C 4.859375 -5.21875 4.484375 -4.640625 3.75 -4.21875 L 2.6875 -3.609375 C 0.984375 -2.625 0.484375 -1.84375 0.390625 -0.015625 L 5.84375 -0.015625 Z M 5.84375 -1 "/>
</symbol>
<symbol overflow="visible" id="glyph4-0">
<path style="stroke:none;" d=""/>
</symbol>
<symbol overflow="visible" id="glyph4-1">
<path style="stroke:none;" d="M 2.5625 -6.71875 C 1.9375 -6.71875 1.390625 -6.4375 1.046875 -5.984375 C 0.609375 -5.390625 0.40625 -4.5 0.40625 -3.25 C 0.40625 -0.984375 1.140625 0.21875 2.5625 0.21875 C 3.953125 0.21875 4.71875 -0.984375 4.71875 -3.203125 C 4.71875 -4.5 4.515625 -5.375 4.078125 -5.984375 C 3.734375 -6.453125 3.171875 -6.71875 2.5625 -6.71875 Z M 2.5625 -6 C 3.4375 -6 3.875 -5.09375 3.875 -3.265625 C 3.875 -1.359375 3.453125 -0.46875 2.53125 -0.46875 C 1.671875 -0.46875 1.234375 -1.390625 1.234375 -3.25 C 1.234375 -5.09375 1.671875 -6 2.5625 -6 Z M 2.5625 -6 "/>
</symbol>
<symbol overflow="visible" id="glyph4-2">
<path style="stroke:none;" d="M 2.40625 -4.78125 L 2.40625 0 L 3.21875 0 L 3.21875 -6.71875 L 2.6875 -6.71875 C 2.40625 -5.6875 2.21875 -5.546875 0.953125 -5.390625 L 0.953125 -4.78125 Z M 2.40625 -4.78125 "/>
</symbol>
<symbol overflow="visible" id="glyph4-3">
<path style="stroke:none;" d="M 4.703125 -0.8125 L 1.234375 -0.8125 C 1.3125 -1.359375 1.625 -1.71875 2.421875 -2.21875 L 3.359375 -2.734375 C 4.28125 -3.25 4.75 -3.9375 4.75 -4.765625 C 4.75 -5.3125 4.53125 -5.84375 4.140625 -6.203125 C 3.75 -6.546875 3.265625 -6.71875 2.640625 -6.71875 C 1.796875 -6.71875 1.1875 -6.421875 0.8125 -5.84375 C 0.578125 -5.5 0.484375 -5.078125 0.46875 -4.390625 L 1.28125 -4.390625 C 1.3125 -4.859375 1.359375 -5.125 1.484375 -5.34375 C 1.6875 -5.75 2.125 -6 2.609375 -6 C 3.359375 -6 3.90625 -5.46875 3.90625 -4.734375 C 3.90625 -4.203125 3.609375 -3.734375 3.015625 -3.40625 L 2.171875 -2.90625 C 0.796875 -2.109375 0.390625 -1.484375 0.3125 -0.015625 L 4.703125 -0.015625 Z M 4.703125 -0.8125 "/>
</symbol>
<symbol overflow="visible" id="glyph4-4">
<path style="stroke:none;" d="M 2.046875 -3.09375 L 2.5 -3.09375 C 3.390625 -3.09375 3.875 -2.671875 3.875 -1.875 C 3.875 -1.015625 3.359375 -0.515625 2.515625 -0.515625 C 1.609375 -0.515625 1.171875 -0.96875 1.109375 -1.953125 L 0.296875 -1.953125 C 0.328125 -1.40625 0.421875 -1.0625 0.578125 -0.765625 C 0.9375 -0.109375 1.578125 0.21875 2.46875 0.21875 C 3.828125 0.21875 4.703125 -0.609375 4.703125 -1.875 C 4.703125 -2.734375 4.375 -3.203125 3.59375 -3.484375 C 4.203125 -3.734375 4.515625 -4.1875 4.515625 -4.875 C 4.515625 -6.03125 3.75 -6.71875 2.5 -6.71875 C 1.171875 -6.71875 0.46875 -5.984375 0.4375 -4.5625 L 1.25 -4.5625 C 1.265625 -4.96875 1.296875 -5.203125 1.40625 -5.40625 C 1.59375 -5.78125 2 -6 2.515625 -6 C 3.234375 -6 3.671875 -5.5625 3.671875 -4.84375 C 3.671875 -4.375 3.5 -4.078125 3.140625 -3.921875 C 2.921875 -3.828125 2.625 -3.796875 2.046875 -3.78125 Z M 2.046875 -3.09375 "/>
</symbol>
<symbol overflow="visible" id="glyph5-0">
<path style="stroke:none;" d=""/>
</symbol>
<symbol overflow="visible" id="glyph5-1">
<path style="stroke:none;" d="M 0.796875 -6.03125 L 0.796875 0 L 1.765625 0 L 1.765625 -3.125 C 1.765625 -4.578125 2.375 -5.21875 3.6875 -5.1875 L 3.6875 -6.15625 C 3.53125 -6.1875 3.4375 -6.203125 3.328125 -6.203125 C 2.703125 -6.203125 2.234375 -5.828125 1.671875 -4.9375 L 1.671875 -6.03125 Z M 0.796875 -6.03125 "/>
</symbol>
<symbol overflow="visible" id="glyph5-2">
<path style="stroke:none;" d="M 5.90625 -2.6875 C 5.90625 -3.609375 5.828125 -4.15625 5.65625 -4.609375 C 5.265625 -5.59375 4.34375 -6.203125 3.21875 -6.203125 C 1.546875 -6.203125 0.453125 -4.921875 0.453125 -2.9375 C 0.453125 -0.9375 1.5 0.265625 3.203125 0.265625 C 4.578125 0.265625 5.53125 -0.515625 5.765625 -1.828125 L 4.8125 -1.828125 C 4.546875 -1.03125 4 -0.625 3.234375 -0.625 C 2.625 -0.625 2.109375 -0.890625 1.78125 -1.40625 C 1.546875 -1.75 1.46875 -2.09375 1.453125 -2.6875 Z M 1.484375 -3.46875 C 1.5625 -4.59375 2.25 -5.3125 3.203125 -5.3125 C 4.1875 -5.3125 4.859375 -4.546875 4.859375 -3.46875 Z M 1.484375 -3.46875 "/>
</symbol>
<symbol overflow="visible" id="glyph5-3">
<path style="stroke:none;" d="M 0.625 2.5 L 1.59375 2.5 L 1.59375 -0.625 C 2.09375 -0.015625 2.65625 0.265625 3.4375 0.265625 C 5 0.265625 6.015625 -0.984375 6.015625 -2.90625 C 6.015625 -4.9375 5.03125 -6.203125 3.421875 -6.203125 C 2.609375 -6.203125 1.953125 -5.828125 1.5 -5.125 L 1.5 -6.03125 L 0.625 -6.03125 Z M 3.265625 -5.296875 C 4.328125 -5.296875 5.015625 -4.375 5.015625 -2.9375 C 5.015625 -1.5625 4.3125 -0.625 3.265625 -0.625 C 2.25 -0.625 1.59375 -1.546875 1.59375 -2.96875 C 1.59375 -4.375 2.25 -5.296875 3.265625 -5.296875 Z M 3.265625 -5.296875 "/>
</symbol>
<symbol overflow="visible" id="glyph5-4">
<path style="stroke:none;" d="M 1.75 -8.390625 L 0.78125 -8.390625 L 0.78125 0 L 1.75 0 Z M 1.75 -8.390625 "/>
</symbol>
<symbol overflow="visible" id="glyph5-5">
<path style="stroke:none;" d="M 1.71875 -6.03125 L 0.765625 -6.03125 L 0.765625 0 L 1.71875 0 Z M 1.71875 -8.390625 L 0.765625 -8.390625 L 0.765625 -7.171875 L 1.71875 -7.171875 Z M 1.71875 -8.390625 "/>
</symbol>
<symbol overflow="visible" id="glyph5-6">
<path style="stroke:none;" d="M 5.421875 -4 C 5.375 -4.59375 5.25 -4.96875 5.015625 -5.296875 C 4.59375 -5.859375 3.875 -6.203125 3.03125 -6.203125 C 1.40625 -6.203125 0.359375 -4.90625 0.359375 -2.90625 C 0.359375 -0.96875 1.390625 0.265625 3.03125 0.265625 C 4.46875 0.265625 5.375 -0.59375 5.484375 -2.0625 L 4.515625 -2.0625 C 4.359375 -1.109375 3.859375 -0.625 3.046875 -0.625 C 1.984375 -0.625 1.359375 -1.484375 1.359375 -2.90625 C 1.359375 -4.421875 1.984375 -5.3125 3.03125 -5.3125 C 3.828125 -5.3125 4.328125 -4.84375 4.453125 -4 Z M 5.421875 -4 "/>
</symbol>
<symbol overflow="visible" id="glyph5-7">
<path style="stroke:none;" d="M 6.15625 -0.5625 C 6.046875 -0.546875 6 -0.546875 5.953125 -0.546875 C 5.609375 -0.546875 5.421875 -0.71875 5.421875 -1.015625 L 5.421875 -4.546875 C 5.421875 -5.625 4.640625 -6.203125 3.15625 -6.203125 C 2.28125 -6.203125 1.578125 -5.953125 1.15625 -5.5 C 0.890625 -5.1875 0.765625 -4.84375 0.75 -4.25 L 1.71875 -4.25 C 1.796875 -4.984375 2.234375 -5.3125 3.125 -5.3125 C 4 -5.3125 4.46875 -4.984375 4.46875 -4.421875 L 4.46875 -4.15625 C 4.46875 -3.75 4.25 -3.59375 3.46875 -3.5 C 2.109375 -3.328125 1.90625 -3.28125 1.546875 -3.125 C 0.84375 -2.828125 0.484375 -2.296875 0.484375 -1.515625 C 0.484375 -0.421875 1.234375 0.265625 2.46875 0.265625 C 3.21875 0.265625 3.828125 0 4.515625 -0.625 C 4.578125 0 4.875 0.265625 5.5 0.265625 C 5.703125 0.265625 5.828125 0.234375 6.15625 0.15625 Z M 4.46875 -1.890625 C 4.46875 -1.578125 4.375 -1.375 4.09375 -1.109375 C 3.703125 -0.765625 3.234375 -0.578125 2.671875 -0.578125 C 1.921875 -0.578125 1.484375 -0.9375 1.484375 -1.546875 C 1.484375 -2.171875 1.890625 -2.5 2.9375 -2.640625 C 3.953125 -2.78125 4.15625 -2.828125 4.46875 -2.984375 Z M 4.46875 -1.890625 "/>
</symbol>
<symbol overflow="visible" id="glyph5-8">
<path style="stroke:none;" d="M 2.921875 -6.03125 L 1.9375 -6.03125 L 1.9375 -7.6875 L 0.984375 -7.6875 L 0.984375 -6.03125 L 0.15625 -6.03125 L 0.15625 -5.25 L 0.984375 -5.25 L 0.984375 -0.6875 C 0.984375 -0.0625 1.390625 0.265625 2.140625 0.265625 C 2.390625 0.265625 2.59375 0.234375 2.921875 0.1875 L 2.921875 -0.625 C 2.78125 -0.59375 2.65625 -0.578125 2.46875 -0.578125 C 2.046875 -0.578125 1.9375 -0.6875 1.9375 -1.109375 L 1.9375 -5.25 L 2.921875 -5.25 Z M 2.921875 -6.03125 "/>
</symbol>
<symbol overflow="visible" id="glyph5-9">
<path style="stroke:none;" d=""/>
</symbol>
<symbol overflow="visible" id="glyph5-10">
<path style="stroke:none;" d="M 2.140625 -3.609375 L 4.90625 -3.609375 C 5.859375 -3.609375 6.28125 -3.15625 6.28125 -2.109375 L 6.265625 -1.375 C 6.265625 -0.84375 6.359375 -0.34375 6.515625 0 L 7.8125 0 L 7.8125 -0.265625 C 7.40625 -0.546875 7.328125 -0.84375 7.296875 -1.953125 C 7.296875 -3.328125 7.078125 -3.75 6.15625 -4.140625 C 7.109375 -4.609375 7.484375 -5.171875 7.484375 -6.140625 C 7.484375 -7.59375 6.59375 -8.390625 4.9375 -8.390625 L 1.0625 -8.390625 L 1.0625 0 L 2.140625 0 Z M 2.140625 -4.546875 L 2.140625 -7.4375 L 4.71875 -7.4375 C 5.328125 -7.4375 5.671875 -7.34375 5.9375 -7.125 C 6.21875 -6.875 6.375 -6.5 6.375 -6 C 6.375 -5 5.859375 -4.546875 4.71875 -4.546875 Z M 2.140625 -4.546875 "/>
</symbol>
<symbol overflow="visible" id="glyph5-11">
<path style="stroke:none;" d="M 0.8125 -6.03125 L 0.8125 0.875 C 0.8125 1.46875 0.625 1.671875 0.015625 1.671875 C -0.046875 1.671875 -0.078125 1.671875 -0.203125 1.65625 L -0.203125 2.46875 C -0.09375 2.5 -0.03125 2.5 0.109375 2.5 C 1.203125 2.5 1.765625 2.078125 1.765625 1.25 L 1.765625 -6.03125 Z M 1.765625 -8.390625 L 0.8125 -8.390625 L 0.8125 -7.171875 L 1.765625 -7.171875 Z M 1.765625 -8.390625 "/>
</symbol>
<symbol overflow="visible" id="glyph5-12">
<path style="stroke:none;" d="M 5.03125 -4.34375 C 5.03125 -5.53125 4.25 -6.203125 2.859375 -6.203125 C 1.453125 -6.203125 0.546875 -5.46875 0.546875 -4.359375 C 0.546875 -3.421875 1.03125 -2.96875 2.453125 -2.625 L 3.34375 -2.40625 C 4.015625 -2.25 4.28125 -2 4.28125 -1.578125 C 4.28125 -1 3.71875 -0.625 2.875 -0.625 C 2.359375 -0.625 1.921875 -0.765625 1.671875 -1.03125 C 1.53125 -1.203125 1.453125 -1.375 1.40625 -1.796875 L 0.390625 -1.796875 C 0.4375 -0.40625 1.21875 0.265625 2.796875 0.265625 C 4.3125 0.265625 5.28125 -0.484375 5.28125 -1.640625 C 5.28125 -2.546875 4.765625 -3.03125 3.578125 -3.328125 L 2.65625 -3.546875 C 1.875 -3.71875 1.546875 -3.984375 1.546875 -4.40625 C 1.546875 -4.96875 2.03125 -5.3125 2.8125 -5.3125 C 3.59375 -5.3125 4 -4.984375 4.03125 -4.34375 Z M 5.03125 -4.34375 "/>
</symbol>
<symbol overflow="visible" id="glyph5-13">
<path style="stroke:none;" d="M 1.03125 0 L 4.25 0 C 6.375 0 7.671875 -1.59375 7.671875 -4.203125 C 7.671875 -6.796875 6.375 -8.390625 4.25 -8.390625 L 1.03125 -8.390625 Z M 2.09375 -0.9375 L 2.09375 -7.4375 L 4.078125 -7.4375 C 5.734375 -7.4375 6.59375 -6.328125 6.59375 -4.1875 C 6.59375 -2.0625 5.734375 -0.9375 4.078125 -0.9375 Z M 2.09375 -0.9375 "/>
</symbol>
<symbol overflow="visible" id="glyph5-14">
<path style="stroke:none;" d="M 8.15625 -4.421875 L 4.65625 -4.421875 L 4.65625 -3.484375 L 7.203125 -3.484375 L 7.203125 -3.25 C 7.203125 -1.765625 6.109375 -0.671875 4.578125 -0.671875 C 3.71875 -0.671875 2.953125 -0.984375 2.46875 -1.53125 C 1.90625 -2.125 1.578125 -3.125 1.578125 -4.15625 C 1.578125 -6.21875 2.75 -7.578125 4.515625 -7.578125 C 5.796875 -7.578125 6.71875 -6.921875 6.953125 -5.84375 L 8.03125 -5.84375 C 7.734375 -7.546875 6.453125 -8.515625 4.53125 -8.515625 C 3.5 -8.515625 2.671875 -8.25 2.03125 -7.71875 C 1.046875 -6.90625 0.5 -5.609375 0.5 -4.109375 C 0.5 -1.53125 2.078125 0.265625 4.34375 0.265625 C 5.484375 0.265625 6.375 -0.15625 7.203125 -1.0625 L 7.46875 0.046875 L 8.15625 0.046875 Z M 8.15625 -4.421875 "/>
</symbol>
<symbol overflow="visible" id="glyph5-15">
<path style="stroke:none;" d="M 3.265625 -3.59375 L 0.53125 -3.59375 L 0.53125 -2.765625 L 3.265625 -2.765625 Z M 3.265625 -3.59375 "/>
</symbol>
<symbol overflow="visible" id="glyph5-16">
<path style="stroke:none;" d="M 5.984375 -8.15625 L 0.53125 -8.15625 L 0.53125 -7.15625 L 4.9375 -7.15625 C 2.984375 -4.375 2.203125 -2.671875 1.59375 0 L 2.671875 0 C 3.109375 -2.609375 4.140625 -4.859375 5.984375 -7.296875 Z M 5.984375 -8.15625 "/>
</symbol>
<symbol overflow="visible" id="glyph5-17">
<path style="stroke:none;" d="M 5.46875 -8.15625 L 1.265625 -8.15625 L 0.65625 -3.71875 L 1.59375 -3.71875 C 2.0625 -4.28125 2.453125 -4.46875 3.09375 -4.46875 C 4.1875 -4.46875 4.859375 -3.71875 4.859375 -2.515625 C 4.859375 -1.34375 4.1875 -0.625 3.078125 -0.625 C 2.203125 -0.625 1.65625 -1.078125 1.421875 -2 L 0.40625 -2 C 0.546875 -1.328125 0.65625 -1.015625 0.890625 -0.71875 C 1.359375 -0.09375 2.1875 0.265625 3.109375 0.265625 C 4.75 0.265625 5.90625 -0.9375 5.90625 -2.65625 C 5.90625 -4.265625 4.828125 -5.375 3.265625 -5.375 C 2.6875 -5.375 2.234375 -5.21875 1.765625 -4.875 L 2.078125 -7.15625 L 5.46875 -7.15625 Z M 5.46875 -8.15625 "/>
</symbol>
<symbol overflow="visible" id="glyph6-0">
<path style="stroke:none;" d=""/>
</symbol>
<symbol overflow="visible" id="glyph6-1">
<path style="stroke:none;" d="M -6.03125 -2.96875 L -6.03125 -1.96875 L -6.96875 -1.96875 C -7.375 -1.96875 -7.578125 -2.1875 -7.578125 -2.640625 C -7.578125 -2.71875 -7.578125 -2.75 -7.5625 -2.96875 L -8.359375 -2.96875 C -8.40625 -2.75 -8.421875 -2.625 -8.421875 -2.421875 C -8.421875 -1.546875 -7.90625 -1.015625 -7.046875 -1.015625 L -6.03125 -1.015625 L -6.03125 -0.203125 L -5.25 -0.203125 L -5.25 -1.015625 L 0 -1.015625 L 0 -1.96875 L -5.25 -1.96875 L -5.25 -2.96875 Z M -6.03125 -2.96875 "/>
</symbol>
<symbol overflow="visible" id="glyph6-2">
<path style="stroke:none;" d="M -8.390625 -1.75 L -8.390625 -0.78125 L 0 -0.78125 L 0 -1.75 Z M -8.390625 -1.75 "/>
</symbol>
<symbol overflow="visible" id="glyph6-3">
<path style="stroke:none;" d="M 0 -5.546875 L -6.03125 -5.546875 L -6.03125 -4.59375 L -2.609375 -4.59375 C -1.375 -4.59375 -0.578125 -3.9375 -0.578125 -2.9375 C -0.578125 -2.1875 -1.03125 -1.703125 -1.765625 -1.703125 L -6.03125 -1.703125 L -6.03125 -0.75 L -1.375 -0.75 C -0.375 -0.75 0.265625 -1.5 0.265625 -2.671875 C 0.265625 -3.546875 -0.046875 -4.109375 -0.84375 -4.6875 L 0 -4.6875 Z M 0 -5.546875 "/>
</symbol>
<symbol overflow="visible" id="glyph6-4">
<path style="stroke:none;" d="M -6.203125 -3.125 C -6.203125 -1.421875 -4.984375 -0.40625 -2.96875 -0.40625 C -0.9375 -0.40625 0.265625 -1.421875 0.265625 -3.140625 C 0.265625 -4.84375 -0.9375 -5.859375 -2.921875 -5.859375 C -5.015625 -5.859375 -6.203125 -4.875 -6.203125 -3.125 Z M -5.3125 -3.140625 C -5.3125 -4.21875 -4.421875 -4.859375 -2.9375 -4.859375 C -1.5 -4.859375 -0.625 -4.203125 -0.625 -3.140625 C -0.625 -2.0625 -1.5 -1.421875 -2.96875 -1.421875 C -4.421875 -1.421875 -5.3125 -2.0625 -5.3125 -3.140625 Z M -5.3125 -3.140625 "/>
</symbol>
<symbol overflow="visible" id="glyph6-5">
<path style="stroke:none;" d="M -6.03125 -0.796875 L 0 -0.796875 L 0 -1.765625 L -3.125 -1.765625 C -4.578125 -1.765625 -5.21875 -2.375 -5.1875 -3.6875 L -6.15625 -3.6875 C -6.1875 -3.53125 -6.203125 -3.4375 -6.203125 -3.328125 C -6.203125 -2.703125 -5.828125 -2.234375 -4.9375 -1.671875 L -6.03125 -1.671875 Z M -6.03125 -0.796875 "/>
</symbol>
<symbol overflow="visible" id="glyph6-6">
<path style="stroke:none;" d="M -2.6875 -5.90625 C -3.609375 -5.90625 -4.15625 -5.828125 -4.609375 -5.65625 C -5.59375 -5.265625 -6.203125 -4.34375 -6.203125 -3.21875 C -6.203125 -1.546875 -4.921875 -0.453125 -2.9375 -0.453125 C -0.9375 -0.453125 0.265625 -1.5 0.265625 -3.203125 C 0.265625 -4.578125 -0.515625 -5.53125 -1.828125 -5.765625 L -1.828125 -4.8125 C -1.03125 -4.546875 -0.625 -4 -0.625 -3.234375 C -0.625 -2.625 -0.890625 -2.109375 -1.40625 -1.78125 C -1.75 -1.546875 -2.09375 -1.46875 -2.6875 -1.453125 Z M -3.46875 -1.484375 C -4.59375 -1.5625 -5.3125 -2.25 -5.3125 -3.203125 C -5.3125 -4.1875 -4.546875 -4.859375 -3.46875 -4.859375 Z M -3.46875 -1.484375 "/>
</symbol>
<symbol overflow="visible" id="glyph6-7">
<path style="stroke:none;" d="M -4.34375 -5.03125 C -5.53125 -5.03125 -6.203125 -4.25 -6.203125 -2.859375 C -6.203125 -1.453125 -5.46875 -0.546875 -4.359375 -0.546875 C -3.421875 -0.546875 -2.96875 -1.03125 -2.625 -2.453125 L -2.40625 -3.34375 C -2.25 -4.015625 -2 -4.28125 -1.578125 -4.28125 C -1 -4.28125 -0.625 -3.71875 -0.625 -2.875 C -0.625 -2.359375 -0.765625 -1.921875 -1.03125 -1.671875 C -1.203125 -1.53125 -1.375 -1.453125 -1.796875 -1.40625 L -1.796875 -0.390625 C -0.40625 -0.4375 0.265625 -1.21875 0.265625 -2.796875 C 0.265625 -4.3125 -0.484375 -5.28125 -1.640625 -5.28125 C -2.546875 -5.28125 -3.03125 -4.765625 -3.328125 -3.578125 L -3.546875 -2.65625 C -3.71875 -1.875 -3.984375 -1.546875 -4.40625 -1.546875 C -4.96875 -1.546875 -5.3125 -2.03125 -5.3125 -2.8125 C -5.3125 -3.59375 -4.984375 -4 -4.34375 -4.03125 Z M -4.34375 -5.03125 "/>
</symbol>
<symbol overflow="visible" id="glyph6-8">
<path style="stroke:none;" d="M -4 -5.421875 C -4.59375 -5.375 -4.96875 -5.25 -5.296875 -5.015625 C -5.859375 -4.59375 -6.203125 -3.875 -6.203125 -3.03125 C -6.203125 -1.40625 -4.90625 -0.359375 -2.90625 -0.359375 C -0.96875 -0.359375 0.265625 -1.390625 0.265625 -3.03125 C 0.265625 -4.46875 -0.59375 -5.375 -2.0625 -5.484375 L -2.0625 -4.515625 C -1.109375 -4.359375 -0.625 -3.859375 -0.625 -3.046875 C -0.625 -1.984375 -1.484375 -1.359375 -2.90625 -1.359375 C -4.421875 -1.359375 -5.3125 -1.984375 -5.3125 -3.03125 C -5.3125 -3.828125 -4.84375 -4.328125 -4 -4.453125 Z M -4 -5.421875 "/>
</symbol>
<symbol overflow="visible" id="glyph6-9">
<path style="stroke:none;" d="M -6.03125 -0.8125 L 0 -0.8125 L 0 -1.765625 L -3.328125 -1.765625 C -4.546875 -1.765625 -5.359375 -2.421875 -5.359375 -3.40625 C -5.359375 -4.15625 -4.90625 -4.640625 -4.171875 -4.640625 L 0 -4.640625 L 0 -5.59375 L -4.546875 -5.59375 C -5.546875 -5.59375 -6.203125 -4.859375 -6.203125 -3.6875 C -6.203125 -2.796875 -5.859375 -2.21875 -5.015625 -1.6875 L -6.03125 -1.6875 Z M -6.03125 -0.8125 "/>
</symbol>
<symbol overflow="visible" id="glyph6-10">
<path style="stroke:none;" d=""/>
</symbol>
<symbol overflow="visible" id="glyph6-11">
<path style="stroke:none;" d="M -8.390625 -2.71875 C -6.875 -1.5625 -4.78125 -0.84375 -2.984375 -0.84375 C -1.15625 -0.84375 0.9375 -1.5625 2.4375 -2.71875 L 2.4375 -3.34375 C 0.796875 -2.328125 -1.140625 -1.765625 -2.984375 -1.765625 C -4.8125 -1.765625 -6.75 -2.328125 -8.390625 -3.34375 Z M -8.390625 -2.71875 "/>
</symbol>
<symbol overflow="visible" id="glyph6-12">
<path style="stroke:none;" d="M -0.5625 -6.15625 C -0.546875 -6.046875 -0.546875 -6 -0.546875 -5.953125 C -0.546875 -5.609375 -0.71875 -5.421875 -1.015625 -5.421875 L -4.546875 -5.421875 C -5.625 -5.421875 -6.203125 -4.640625 -6.203125 -3.15625 C -6.203125 -2.28125 -5.953125 -1.578125 -5.5 -1.15625 C -5.1875 -0.890625 -4.84375 -0.765625 -4.25 -0.75 L -4.25 -1.71875 C -4.984375 -1.796875 -5.3125 -2.234375 -5.3125 -3.125 C -5.3125 -4 -4.984375 -4.46875 -4.421875 -4.46875 L -4.15625 -4.46875 C -3.75 -4.46875 -3.59375 -4.25 -3.5 -3.46875 C -3.328125 -2.109375 -3.28125 -1.90625 -3.125 -1.546875 C -2.828125 -0.84375 -2.296875 -0.484375 -1.515625 -0.484375 C -0.421875 -0.484375 0.265625 -1.234375 0.265625 -2.46875 C 0.265625 -3.21875 0 -3.828125 -0.625 -4.515625 C 0 -4.578125 0.265625 -4.875 0.265625 -5.5 C 0.265625 -5.703125 0.234375 -5.828125 0.15625 -6.15625 Z M -1.890625 -4.46875 C -1.578125 -4.46875 -1.375 -4.375 -1.109375 -4.09375 C -0.765625 -3.703125 -0.578125 -3.234375 -0.578125 -2.671875 C -0.578125 -1.921875 -0.9375 -1.484375 -1.546875 -1.484375 C -2.171875 -1.484375 -2.5 -1.890625 -2.640625 -2.9375 C -2.78125 -3.953125 -2.828125 -4.15625 -2.984375 -4.46875 Z M -1.890625 -4.46875 "/>
</symbol>
<symbol overflow="visible" id="glyph6-13">
<path style="stroke:none;" d="M -8.390625 -0.625 L 0 -0.625 L 0 -1.484375 L -0.765625 -1.484375 C -0.0625 -1.9375 0.265625 -2.546875 0.265625 -3.390625 C 0.265625 -4.984375 -1.03125 -6.015625 -3.03125 -6.015625 C -4.984375 -6.015625 -6.203125 -5.03125 -6.203125 -3.4375 C -6.203125 -2.609375 -5.890625 -2.03125 -5.203125 -1.578125 L -8.390625 -1.578125 Z M -5.296875 -3.25 C -5.296875 -4.328125 -4.375 -5.015625 -2.9375 -5.015625 C -1.5625 -5.015625 -0.625 -4.296875 -0.625 -3.25 C -0.625 -2.234375 -1.546875 -1.578125 -2.96875 -1.578125 C -4.375 -1.578125 -5.296875 -2.234375 -5.296875 -3.25 Z M -5.296875 -3.25 "/>
</symbol>
<symbol overflow="visible" id="glyph6-14">
<path style="stroke:none;" d="M -6.03125 -1.71875 L -6.03125 -0.765625 L 0 -0.765625 L 0 -1.71875 Z M -8.390625 -1.71875 L -8.390625 -0.765625 L -7.171875 -0.765625 L -7.171875 -1.71875 Z M -8.390625 -1.71875 "/>
</symbol>
<symbol overflow="visible" id="glyph6-15">
<path style="stroke:none;" d="M -6.03125 -2.921875 L -6.03125 -1.9375 L -7.6875 -1.9375 L -7.6875 -0.984375 L -6.03125 -0.984375 L -6.03125 -0.15625 L -5.25 -0.15625 L -5.25 -0.984375 L -0.6875 -0.984375 C -0.0625 -0.984375 0.265625 -1.390625 0.265625 -2.140625 C 0.265625 -2.390625 0.234375 -2.59375 0.1875 -2.921875 L -0.625 -2.921875 C -0.59375 -2.78125 -0.578125 -2.65625 -0.578125 -2.46875 C -0.578125 -2.046875 -0.6875 -1.9375 -1.109375 -1.9375 L -5.25 -1.9375 L -5.25 -2.921875 Z M -6.03125 -2.921875 "/>
</symbol>
<symbol overflow="visible" id="glyph6-16">
<path style="stroke:none;" d="M -6.03125 -4.46875 L -1.328125 -2.796875 L -6.03125 -1.25 L -6.03125 -0.234375 L 0.015625 -2.265625 L 0.984375 -1.890625 C 1.40625 -1.734375 1.5625 -1.53125 1.5625 -1.125 C 1.5625 -0.96875 1.546875 -0.828125 1.5 -0.625 L 2.359375 -0.625 C 2.46875 -0.8125 2.5 -1.015625 2.5 -1.265625 C 2.5 -1.578125 2.40625 -1.90625 2.21875 -2.15625 C 2 -2.46875 1.75 -2.640625 1.265625 -2.8125 L -6.03125 -5.5 Z M -6.03125 -4.46875 "/>
</symbol>
<symbol overflow="visible" id="glyph6-17">
<path style="stroke:none;" d="M 2.4375 -1.0625 C 0.9375 -2.21875 -1.15625 -2.9375 -2.96875 -2.9375 C -4.78125 -2.9375 -6.875 -2.21875 -8.390625 -1.0625 L -8.390625 -0.4375 C -6.734375 -1.453125 -4.8125 -2.015625 -2.96875 -2.015625 C -1.140625 -2.015625 0.8125 -1.453125 2.4375 -0.4375 Z M 2.4375 -1.0625 "/>
</symbol>
</g>
<clipPath id="clip1">
  <path d="M 27.328125 478 L 283 478 L 283 480 L 27.328125 480 Z M 27.328125 478 "/>
</clipPath>
<clipPath id="clip2">
  <path d="M 27.328125 360 L 283 360 L 283 362 L 27.328125 362 Z M 27.328125 360 "/>
</clipPath>
<clipPath id="clip3">
  <path d="M 27.328125 242 L 283 242 L 283 244 L 27.328125 244 Z M 27.328125 242 "/>
</clipPath>
<clipPath id="clip4">
  <path d="M 27.328125 124 L 283 124 L 283 126 L 27.328125 126 Z M 27.328125 124 "/>
</clipPath>
<clipPath id="clip5">
  <path d="M 66 27.328125 L 68 27.328125 L 68 538.671875 L 66 538.671875 Z M 66 27.328125 "/>
</clipPath>
<clipPath id="clip6">
  <path d="M 137 27.328125 L 139 27.328125 L 139 538.671875 L 137 538.671875 Z M 137 27.328125 "/>
</clipPath>
<clipPath id="clip7">
  <path d="M 208 27.328125 L 210 27.328125 L 210 538.671875 L 208 538.671875 Z M 208 27.328125 "/>
</clipPath>
<clipPath id="clip8">
  <path d="M 279 27.328125 L 281 27.328125 L 281 538.671875 L 279 538.671875 Z M 279 27.328125 "/>
</clipPath>
<clipPath id="clip9">
  <path d="M 27.328125 419 L 283.519531 419 L 283.519531 421 L 27.328125 421 Z M 27.328125 419 "/>
</clipPath>
<clipPath id="clip10">
  <path d="M 27.328125 301 L 283.519531 301 L 283.519531 303 L 27.328125 303 Z M 27.328125 301 "/>
</clipPath>
<clipPath id="clip11">
  <path d="M 27.328125 183 L 283.519531 183 L 283.519531 185 L 27.328125 185 Z M 27.328125 183 "/>
</clipPath>
<clipPath id="clip12">
  <path d="M 27.328125 65 L 283.519531 65 L 283.519531 67 L 27.328125 67 Z M 27.328125 65 "/>
</clipPath>
<clipPath id="clip13">
  <path d="M 31 27.328125 L 33 27.328125 L 33 538.671875 L 31 538.671875 Z M 31 27.328125 "/>
</clipPath>
<clipPath id="clip14">
  <path d="M 101 27.328125 L 104 27.328125 L 104 538.671875 L 101 538.671875 Z M 101 27.328125 "/>
</clipPath>
<clipPath id="clip15">
  <path d="M 172 27.328125 L 175 27.328125 L 175 538.671875 L 172 538.671875 Z M 172 27.328125 "/>
</clipPath>
<clipPath id="clip16">
  <path d="M 243 27.328125 L 246 27.328125 L 246 538.671875 L 243 538.671875 Z M 243 27.328125 "/>
</clipPath>
<clipPath id="clip17">
  <path d="M 101 446 L 104 446 L 104 538.671875 L 101 538.671875 Z M 101 446 "/>
</clipPath>
<clipPath id="clip18">
  <path d="M 172 394 L 175 394 L 175 538.671875 L 172 538.671875 Z M 172 394 "/>
</clipPath>
<clipPath id="clip19">
  <path d="M 243 430 L 246 430 L 246 538.671875 L 243 538.671875 Z M 243 430 "/>
</clipPath>
<clipPath id="clip20">
  <path d="M 309.847656 456 L 566 456 L 566 457 L 309.847656 457 Z M 309.847656 456 "/>
</clipPath>
<clipPath id="clip21">
  <path d="M 309.847656 309 L 566 309 L 566 310 L 309.847656 310 Z M 309.847656 309 "/>
</clipPath>
<clipPath id="clip22">
  <path d="M 309.847656 161 L 566 161 L 566 163 L 309.847656 163 Z M 309.847656 161 "/>
</clipPath>
<clipPath id="clip23">
  <path d="M 349 27.328125 L 351 27.328125 L 351 538.671875 L 349 538.671875 Z M 349 27.328125 "/>
</clipPath>
<clipPath id="clip24">
  <path d="M 420 27.328125 L 421 27.328125 L 421 538.671875 L 420 538.671875 Z M 420 27.328125 "/>
</clipPath>
<clipPath id="clip25">
  <path d="M 491 27.328125 L 492 27.328125 L 492 538.671875 L 491 538.671875 Z M 491 27.328125 "/>
</clipPath>
<clipPath id="clip26">
  <path d="M 561 27.328125 L 563 27.328125 L 563 538.671875 L 561 538.671875 Z M 561 27.328125 "/>
</clipPath>
<clipPath id="clip27">
  <path d="M 309.847656 529 L 566 529 L 566 531 L 309.847656 531 Z M 309.847656 529 "/>
</clipPath>
<clipPath id="clip28">
  <path d="M 309.847656 382 L 566 382 L 566 384 L 309.847656 384 Z M 309.847656 382 "/>
</clipPath>
<clipPath id="clip29">
  <path d="M 309.847656 235 L 566 235 L 566 237 L 309.847656 237 Z M 309.847656 235 "/>
</clipPath>
<clipPath id="clip30">
  <path d="M 309.847656 87 L 566 87 L 566 90 L 309.847656 90 Z M 309.847656 87 "/>
</clipPath>
<clipPath id="clip31">
  <path d="M 313 27.328125 L 316 27.328125 L 316 538.671875 L 313 538.671875 Z M 313 27.328125 "/>
</clipPath>
<clipPath id="clip32">
  <path d="M 384 27.328125 L 386 27.328125 L 386 538.671875 L 384 538.671875 Z M 384 27.328125 "/>
</clipPath>
<clipPath id="clip33">
  <path d="M 455 27.328125 L 457 27.328125 L 457 538.671875 L 455 538.671875 Z M 455 27.328125 "/>
</clipPath>
<clipPath id="clip34">
  <path d="M 526 27.328125 L 528 27.328125 L 528 538.671875 L 526 538.671875 Z M 526 27.328125 "/>
</clipPath>
<clipPath id="clip35">
  <path d="M 384 495 L 386 495 L 386 538.671875 L 384 538.671875 Z M 384 495 "/>
</clipPath>
<clipPath id="clip36">
  <path d="M 455 405 L 457 405 L 457 538.671875 L 455 538.671875 Z M 455 405 "/>
</clipPath>
</defs>
<g id="surface3271">
<rect x="0" y="0" width="576" height="576" style="fill:rgb(100%,100%,100%);fill-opacity:1;stroke:none;"/>
<path style="fill:none;stroke-width:1.422638;stroke-linecap:round;stroke-linejoin:round;stroke:rgb(100%,100%,100%);stroke-opacity:1;stroke-miterlimit:10;" d="M 0 0 L 576 0 L 576 576 L 0 576 Z M 0 0 "/>
<g clip-path="url(#clip1)" clip-rule="nonzero">
<path style="fill:none;stroke-width:0.711319;stroke-linecap:butt;stroke-linejoin:round;stroke:rgb(92.156863%,92.156863%,92.156863%);stroke-opacity:1;stroke-miterlimit:10;" d="M 27.328125 478.867188 L 282.519531 478.867188 "/>
</g>
<g clip-path="url(#clip2)" clip-rule="nonzero">
<path style="fill:none;stroke-width:0.711319;stroke-linecap:butt;stroke-linejoin:round;stroke:rgb(92.156863%,92.156863%,92.156863%);stroke-opacity:1;stroke-miterlimit:10;" d="M 27.328125 360.851562 L 282.519531 360.851562 "/>
</g>
<g clip-path="url(#clip3)" clip-rule="nonzero">
<path style="fill:none;stroke-width:0.711319;stroke-linecap:butt;stroke-linejoin:round;stroke:rgb(92.156863%,92.156863%,92.156863%);stroke-opacity:1;stroke-miterlimit:10;" d="M 27.328125 242.832031 L 282.519531 242.832031 "/>
</g>
<g clip-path="url(#clip4)" clip-rule="nonzero">
<path style="fill:none;stroke-width:0.711319;stroke-linecap:butt;stroke-linejoin:round;stroke:rgb(92.156863%,92.156863%,92.156863%);stroke-opacity:1;stroke-miterlimit:10;" d="M 27.328125 124.816406 L 282.519531 124.816406 "/>
</g>
<g clip-path="url(#clip5)" clip-rule="nonzero">
<path style="fill:none;stroke-width:0.711319;stroke-linecap:butt;stroke-linejoin:round;stroke:rgb(92.156863%,92.156863%,92.156863%);stroke-opacity:1;stroke-miterlimit:10;" d="M 67.261719 537.671875 L 67.261719 27.328125 "/>
</g>
<g clip-path="url(#clip6)" clip-rule="nonzero">
<path style="fill:none;stroke-width:0.711319;stroke-linecap:butt;stroke-linejoin:round;stroke:rgb(92.156863%,92.156863%,92.156863%);stroke-opacity:1;stroke-miterlimit:10;" d="M 138.101562 537.671875 L 138.101562 27.328125 "/>
</g>
<g clip-path="url(#clip7)" clip-rule="nonzero">
<path style="fill:none;stroke-width:0.711319;stroke-linecap:butt;stroke-linejoin:round;stroke:rgb(92.156863%,92.156863%,92.156863%);stroke-opacity:1;stroke-miterlimit:10;" d="M 208.9375 537.671875 L 208.9375 27.328125 "/>
</g>
<g clip-path="url(#clip8)" clip-rule="nonzero">
<path style="fill:none;stroke-width:0.711319;stroke-linecap:butt;stroke-linejoin:round;stroke:rgb(92.156863%,92.156863%,92.156863%);stroke-opacity:1;stroke-miterlimit:10;" d="M 279.777344 537.671875 L 279.777344 27.328125 "/>
</g>
<g clip-path="url(#clip9)" clip-rule="nonzero">
<path style="fill:none;stroke-width:1.422638;stroke-linecap:butt;stroke-linejoin:round;stroke:rgb(92.156863%,92.156863%,92.156863%);stroke-opacity:1;stroke-miterlimit:10;" d="M 27.328125 419.859375 L 282.519531 419.859375 "/>
</g>
<g clip-path="url(#clip10)" clip-rule="nonzero">
<path style="fill:none;stroke-width:1.422638;stroke-linecap:butt;stroke-linejoin:round;stroke:rgb(92.156863%,92.156863%,92.156863%);stroke-opacity:1;stroke-miterlimit:10;" d="M 27.328125 301.84375 L 282.519531 301.84375 "/>
</g>
<g clip-path="url(#clip11)" clip-rule="nonzero">
<path style="fill:none;stroke-width:1.422638;stroke-linecap:butt;stroke-linejoin:round;stroke:rgb(92.156863%,92.156863%,92.156863%);stroke-opacity:1;stroke-miterlimit:10;" d="M 27.328125 183.824219 L 282.519531 183.824219 "/>
</g>
<g clip-path="url(#clip12)" clip-rule="nonzero">
<path style="fill:none;stroke-width:1.422638;stroke-linecap:butt;stroke-linejoin:round;stroke:rgb(92.156863%,92.156863%,92.156863%);stroke-opacity:1;stroke-miterlimit:10;" d="M 27.328125 65.808594 L 282.519531 65.808594 "/>
</g>
<g clip-path="url(#clip13)" clip-rule="nonzero">
<path style="fill:none;stroke-width:1.422638;stroke-linecap:butt;stroke-linejoin:round;stroke:rgb(92.156863%,92.156863%,92.156863%);stroke-opacity:1;stroke-miterlimit:10;" d="M 31.84375 537.671875 L 31.84375 27.328125 "/>
</g>
<g clip-path="url(#clip14)" clip-rule="nonzero">
<path style="fill:none;stroke-width:1.422638;stroke-linecap:butt;stroke-linejoin:round;stroke:rgb(92.156863%,92.156863%,92.156863%);stroke-opacity:1;stroke-miterlimit:10;" d="M 102.683594 537.671875 L 102.683594 27.328125 "/>
</g>
<g clip-path="url(#clip15)" clip-rule="nonzero">
<path style="fill:none;stroke-width:1.422638;stroke-linecap:butt;stroke-linejoin:round;stroke:rgb(92.156863%,92.156863%,92.156863%);stroke-opacity:1;stroke-miterlimit:10;" d="M 173.519531 537.671875 L 173.519531 27.328125 "/>
</g>
<g clip-path="url(#clip16)" clip-rule="nonzero">
<path style="fill:none;stroke-width:1.422638;stroke-linecap:butt;stroke-linejoin:round;stroke:rgb(92.156863%,92.156863%,92.156863%);stroke-opacity:1;stroke-miterlimit:10;" d="M 244.355469 537.671875 L 244.355469 27.328125 "/>
</g>
<path style="fill:none;stroke-width:1.422638;stroke-linecap:butt;stroke-linejoin:round;stroke:rgb(20%,20%,20%);stroke-opacity:1;stroke-miterlimit:10;" d="M 102.683594 203.871094 L 102.683594 63.085938 "/>
<g clip-path="url(#clip17)" clip-rule="nonzero">
<path style="fill:none;stroke-width:1.422638;stroke-linecap:butt;stroke-linejoin:round;stroke:rgb(20%,20%,20%);stroke-opacity:1;stroke-miterlimit:10;" d="M 102.683594 447.222656 L 102.683594 576 "/>
</g>
<path style="fill-rule:nonzero;fill:rgb(100%,100%,100%);fill-opacity:1;stroke-width:1.422638;stroke-linecap:round;stroke-linejoin:round;stroke:rgb(20%,20%,20%);stroke-opacity:1;stroke-miterlimit:10;" d="M 76.117188 203.871094 L 76.117188 447.222656 L 129.246094 447.222656 L 129.246094 203.871094 Z M 76.117188 203.871094 "/>
<path style="fill:none;stroke-width:2.845276;stroke-linecap:butt;stroke-linejoin:round;stroke:rgb(20%,20%,20%);stroke-opacity:1;stroke-miterlimit:10;" d="M 76.117188 278.085938 L 129.246094 278.085938 "/>
<path style="fill:none;stroke-width:1.422638;stroke-linecap:butt;stroke-linejoin:round;stroke:rgb(20%,20%,20%);stroke-opacity:1;stroke-miterlimit:10;" d="M 173.519531 189.539062 L 173.519531 94.921875 "/>
<g clip-path="url(#clip18)" clip-rule="nonzero">
<path style="fill:none;stroke-width:1.422638;stroke-linecap:butt;stroke-linejoin:round;stroke:rgb(20%,20%,20%);stroke-opacity:1;stroke-miterlimit:10;" d="M 173.519531 395.507812 L 173.519531 576 "/>
</g>
<path style="fill-rule:nonzero;fill:rgb(100%,100%,100%);fill-opacity:1;stroke-width:1.422638;stroke-linecap:round;stroke-linejoin:round;stroke:rgb(20%,20%,20%);stroke-opacity:1;stroke-miterlimit:10;" d="M 146.957031 189.539062 L 146.957031 395.507812 L 200.082031 395.507812 L 200.082031 189.539062 Z M 146.957031 189.539062 "/>
<path style="fill:none;stroke-width:2.845276;stroke-linecap:butt;stroke-linejoin:round;stroke:rgb(20%,20%,20%);stroke-opacity:1;stroke-miterlimit:10;" d="M 146.957031 240.773438 L 200.082031 240.773438 "/>
<path style="fill:none;stroke-width:1.422638;stroke-linecap:butt;stroke-linejoin:round;stroke:rgb(20%,20%,20%);stroke-opacity:1;stroke-miterlimit:10;" d="M 244.355469 182.519531 L 244.355469 50.527344 "/>
<g clip-path="url(#clip19)" clip-rule="nonzero">
<path style="fill:none;stroke-width:1.422638;stroke-linecap:butt;stroke-linejoin:round;stroke:rgb(20%,20%,20%);stroke-opacity:1;stroke-miterlimit:10;" d="M 244.355469 430.851562 L 244.355469 576 "/>
</g>
<path style="fill-rule:nonzero;fill:rgb(100%,100%,100%);fill-opacity:1;stroke-width:1.422638;stroke-linecap:round;stroke-linejoin:round;stroke:rgb(20%,20%,20%);stroke-opacity:1;stroke-miterlimit:10;" d="M 217.792969 182.519531 L 217.792969 430.851562 L 270.921875 430.851562 L 270.921875 182.519531 Z M 217.792969 182.519531 "/>
<path style="fill:none;stroke-width:2.845276;stroke-linecap:butt;stroke-linejoin:round;stroke:rgb(20%,20%,20%);stroke-opacity:1;stroke-miterlimit:10;" d="M 217.792969 318.214844 L 270.921875 318.214844 "/>
<path style=" stroke:none;fill-rule:nonzero;fill:rgb(60%,60%,60%);fill-opacity:0.4;" d="M 102.683594 270.632812 L 104.476562 271.183594 L 106.269531 271.730469 L 108.0625 272.273438 L 109.855469 272.808594 L 111.648438 273.335938 L 113.441406 273.855469 L 115.234375 274.371094 L 117.027344 274.875 L 118.824219 275.371094 L 120.617188 275.859375 L 122.410156 276.339844 L 124.203125 276.808594 L 125.996094 277.269531 L 127.789062 277.71875 L 129.582031 278.15625 L 131.375 278.582031 L 133.167969 278.996094 L 134.960938 279.398438 L 136.753906 279.789062 L 138.550781 280.164062 L 140.34375 280.527344 L 142.136719 280.875 L 143.929688 281.203125 L 145.722656 281.519531 L 147.515625 281.820312 L 149.308594 282.101562 L 151.101562 282.363281 L 152.894531 282.609375 L 154.6875 282.835938 L 156.484375 283.042969 L 158.277344 283.230469 L 160.070312 283.398438 L 161.863281 283.542969 L 163.65625 283.667969 L 165.449219 283.773438 L 167.242188 283.851562 L 169.035156 283.910156 L 170.828125 283.949219 L 172.621094 283.960938 L 174.417969 283.953125 L 176.210938 283.921875 L 178.003906 283.867188 L 179.796875 283.789062 L 181.589844 283.691406 L 183.382812 283.570312 L 185.175781 283.425781 L 186.96875 283.265625 L 188.761719 283.078125 L 190.554688 282.875 L 192.351562 282.648438 L 194.144531 282.402344 L 195.9375 282.140625 L 197.730469 281.859375 L 199.523438 281.558594 L 201.316406 281.242188 L 203.109375 280.910156 L 204.902344 280.558594 L 206.695312 280.195312 L 208.488281 279.816406 L 210.285156 279.421875 L 212.078125 279.015625 L 213.871094 278.59375 L 215.664062 278.160156 L 217.457031 277.714844 L 219.25 277.261719 L 221.042969 276.792969 L 222.835938 276.316406 L 224.628906 275.828125 L 226.421875 275.332031 L 228.214844 274.824219 L 230.011719 274.308594 L 231.804688 273.785156 L 233.597656 273.253906 L 235.390625 272.71875 L 237.183594 272.171875 L 238.976562 271.617188 L 240.769531 271.058594 L 242.5625 270.492188 L 244.355469 269.921875 L 244.355469 344.378906 L 242.5625 343.824219 L 240.769531 343.277344 L 238.976562 342.734375 L 237.183594 342.199219 L 235.390625 341.671875 L 233.597656 341.152344 L 231.804688 340.636719 L 230.011719 340.132812 L 228.214844 339.636719 L 226.421875 339.148438 L 224.628906 338.667969 L 222.835938 338.199219 L 221.042969 337.738281 L 219.25 337.289062 L 217.457031 336.851562 L 215.664062 336.425781 L 213.871094 336.011719 L 212.078125 335.609375 L 210.285156 335.21875 L 208.488281 334.84375 L 206.695312 334.480469 L 204.902344 334.132812 L 203.109375 333.804688 L 201.316406 333.488281 L 199.523438 333.1875 L 197.730469 332.90625 L 195.9375 332.644531 L 194.144531 332.398438 L 192.351562 332.171875 L 190.554688 331.964844 L 188.761719 331.777344 L 186.96875 331.609375 L 185.175781 331.464844 L 183.382812 331.339844 L 181.589844 331.238281 L 179.796875 331.15625 L 178.003906 331.097656 L 176.210938 331.0625 L 174.417969 331.046875 L 172.621094 331.054688 L 170.828125 331.085938 L 169.035156 331.140625 L 167.242188 331.21875 L 165.449219 331.316406 L 163.65625 331.4375 L 161.863281 331.582031 L 160.070312 331.746094 L 158.277344 331.929688 L 156.484375 332.132812 L 154.6875 332.359375 L 152.894531 332.605469 L 151.101562 332.867188 L 149.308594 333.148438 L 147.515625 333.449219 L 145.722656 333.765625 L 143.929688 334.097656 L 142.136719 334.449219 L 140.34375 334.8125 L 138.550781 335.191406 L 136.753906 335.585938 L 134.960938 335.992188 L 133.167969 336.414062 L 131.375 336.847656 L 129.582031 337.292969 L 127.789062 337.746094 L 125.996094 338.214844 L 124.203125 338.691406 L 122.410156 339.179688 L 120.617188 339.675781 L 118.824219 340.183594 L 117.027344 340.699219 L 115.234375 341.222656 L 113.441406 341.753906 L 111.648438 342.292969 L 109.855469 342.835938 L 108.0625 343.390625 L 106.269531 343.949219 L 104.476562 344.515625 L 102.683594 345.085938 Z M 102.683594 270.632812 "/>
<path style="fill:none;stroke-width:2.845276;stroke-linecap:butt;stroke-linejoin:round;stroke:rgb(20%,40%,100%);stroke-opacity:1;stroke-miterlimit:10;" d="M 102.683594 307.859375 L 104.476562 307.847656 L 109.855469 307.824219 L 111.648438 307.8125 L 115.234375 307.796875 L 117.027344 307.785156 L 118.824219 307.777344 L 122.410156 307.761719 L 124.203125 307.75 L 127.789062 307.734375 L 129.582031 307.722656 L 133.167969 307.707031 L 134.960938 307.695312 L 136.753906 307.6875 L 138.550781 307.679688 L 140.34375 307.671875 L 142.136719 307.660156 L 145.722656 307.644531 L 147.515625 307.632812 L 151.101562 307.617188 L 152.894531 307.605469 L 154.6875 307.597656 L 156.484375 307.589844 L 158.277344 307.582031 L 160.070312 307.570312 L 163.65625 307.554688 L 165.449219 307.542969 L 169.035156 307.527344 L 170.828125 307.515625 L 172.621094 307.507812 L 174.417969 307.5 L 176.210938 307.492188 L 178.003906 307.480469 L 181.589844 307.464844 L 183.382812 307.453125 L 188.761719 307.429688 L 190.554688 307.417969 L 192.351562 307.410156 L 194.144531 307.402344 L 195.9375 307.390625 L 199.523438 307.375 L 201.316406 307.363281 L 206.695312 307.339844 L 208.488281 307.328125 L 210.285156 307.320312 L 212.078125 307.3125 L 213.871094 307.300781 L 217.457031 307.285156 L 219.25 307.273438 L 224.628906 307.25 L 226.421875 307.238281 L 228.214844 307.230469 L 230.011719 307.222656 L 231.804688 307.210938 L 237.183594 307.1875 L 238.976562 307.175781 L 242.5625 307.160156 L 244.355469 307.148438 "/>
<path style="fill-rule:nonzero;fill:rgb(100%,100%,100%);fill-opacity:0.85098;stroke-width:0.711319;stroke-linecap:round;stroke-linejoin:round;stroke:rgb(0%,0%,0%);stroke-opacity:1;stroke-miterlimit:10;" d="M 41.089844 80.417969 L 150.511719 80.417969 L 150.425781 80.417969 L 150.773438 80.402344 L 151.113281 80.332031 L 151.4375 80.210938 L 151.738281 80.035156 L 152.007812 79.816406 L 152.238281 79.554688 L 152.425781 79.261719 L 152.558594 78.941406 L 152.644531 78.605469 L 152.671875 78.257812 L 152.671875 61.226562 L 152.644531 60.878906 L 152.558594 60.542969 L 152.425781 60.222656 L 152.238281 59.929688 L 152.007812 59.667969 L 151.738281 59.449219 L 151.4375 59.273438 L 151.113281 59.152344 L 150.773438 59.082031 L 150.511719 59.066406 L 41.089844 59.066406 L 41.347656 59.082031 L 41 59.070312 L 40.65625 59.109375 L 40.324219 59.207031 L 40.007812 59.355469 L 39.722656 59.554688 L 39.472656 59.792969 L 39.261719 60.074219 L 39.101562 60.378906 L 38.992188 60.710938 L 38.933594 61.054688 L 38.929688 61.226562 L 38.929688 78.257812 L 38.933594 78.082031 L 38.933594 78.429688 L 38.992188 78.773438 L 39.101562 79.105469 L 39.261719 79.414062 L 39.472656 79.691406 L 39.722656 79.929688 L 40.007812 80.128906 L 40.324219 80.277344 L 40.65625 80.375 L 41 80.417969 Z M 41.089844 80.417969 "/>
<g style="fill:rgb(0%,0%,0%);fill-opacity:1;">
  <use xlink:href="#glyph0-1" x="42.242188" y="73.839844"/>
</g>
<g style="fill:rgb(0%,0%,0%);fill-opacity:1;">
  <use xlink:href="#glyph1-1" x="51.832031" y="68.097656"/>
</g>
<g style="fill:rgb(0%,0%,0%);fill-opacity:1;">
  <use xlink:href="#glyph2-1" x="56.410156" y="73.839844"/>
</g>
<g style="fill:rgb(0%,0%,0%);fill-opacity:1;">
  <use xlink:href="#glyph3-1" x="59.292969" y="73.839844"/>
</g>
<g style="fill:rgb(0%,0%,0%);fill-opacity:1;">
  <use xlink:href="#glyph2-1" x="66.03125" y="73.839844"/>
</g>
<g style="fill:rgb(0%,0%,0%);fill-opacity:1;">
  <use xlink:href="#glyph3-2" x="68.917969" y="73.839844"/>
  <use xlink:href="#glyph3-3" x="75.334025" y="73.839844"/>
  <use xlink:href="#glyph3-4" x="81.750081" y="73.839844"/>
  <use xlink:href="#glyph3-5" x="85.592791" y="73.839844"/>
  <use xlink:href="#glyph3-6" x="92.008847" y="73.839844"/>
</g>
<g style="fill:rgb(0%,0%,0%);fill-opacity:1;">
  <use xlink:href="#glyph2-1" x="98.425781" y="73.839844"/>
</g>
<g style="fill:rgb(0%,0%,0%);fill-opacity:1;">
  <use xlink:href="#glyph3-7" x="101.308594" y="73.839844"/>
</g>
<g style="fill:rgb(0%,0%,0%);fill-opacity:1;">
  <use xlink:href="#glyph2-1" x="104.515625" y="73.839844"/>
</g>
<g style="fill:rgb(0%,0%,0%);fill-opacity:1;">
  <use xlink:href="#glyph0-2" x="107.402344" y="73.839844"/>
</g>
<g style="fill:rgb(0%,0%,0%);fill-opacity:1;">
  <use xlink:href="#glyph2-1" x="113.820312" y="73.839844"/>
</g>
<g style="fill:rgb(0%,0%,0%);fill-opacity:1;">
  <use xlink:href="#glyph3-1" x="116.703125" y="73.839844"/>
</g>
<g style="fill:rgb(0%,0%,0%);fill-opacity:1;">
  <use xlink:href="#glyph2-1" x="123.441406" y="73.839844"/>
</g>
<g style="fill:rgb(0%,0%,0%);fill-opacity:1;">
  <use xlink:href="#glyph3-5" x="126.328125" y="73.839844"/>
  <use xlink:href="#glyph3-8" x="132.744181" y="73.839844"/>
  <use xlink:href="#glyph3-9" x="135.952209" y="73.839844"/>
  <use xlink:href="#glyph3-10" x="142.368265" y="73.839844"/>
</g>
<g style="fill:rgb(30.196078%,30.196078%,30.196078%);fill-opacity:1;">
  <use xlink:href="#glyph4-1" x="29.257812" y="549.382812"/>
</g>
<g style="fill:rgb(30.196078%,30.196078%,30.196078%);fill-opacity:1;">
  <use xlink:href="#glyph4-2" x="100.097656" y="549.382812"/>
</g>
<g style="fill:rgb(30.196078%,30.196078%,30.196078%);fill-opacity:1;">
  <use xlink:href="#glyph4-3" x="170.933594" y="549.382812"/>
</g>
<g style="fill:rgb(30.196078%,30.196078%,30.196078%);fill-opacity:1;">
  <use xlink:href="#glyph4-4" x="241.769531" y="549.382812"/>
</g>
<g style="fill:rgb(0%,0%,0%);fill-opacity:1;">
  <use xlink:href="#glyph5-1" x="119.132812" y="562.535156"/>
  <use xlink:href="#glyph5-2" x="122.962312" y="562.535156"/>
  <use xlink:href="#glyph5-3" x="129.356313" y="562.535156"/>
  <use xlink:href="#glyph5-4" x="135.750313" y="562.535156"/>
  <use xlink:href="#glyph5-5" x="138.303313" y="562.535156"/>
  <use xlink:href="#glyph5-6" x="140.856313" y="562.535156"/>
  <use xlink:href="#glyph5-7" x="146.606313" y="562.535156"/>
  <use xlink:href="#glyph5-8" x="153.000313" y="562.535156"/>
  <use xlink:href="#glyph5-2" x="156.197313" y="562.535156"/>
  <use xlink:href="#glyph5-9" x="162.591313" y="562.535156"/>
  <use xlink:href="#glyph5-3" x="165.788313" y="562.535156"/>
  <use xlink:href="#glyph5-4" x="172.182313" y="562.535156"/>
  <use xlink:href="#glyph5-7" x="174.735313" y="562.535156"/>
  <use xlink:href="#glyph5-8" x="181.129313" y="562.535156"/>
  <use xlink:href="#glyph5-2" x="184.326313" y="562.535156"/>
</g>
<g style="fill:rgb(0%,0%,0%);fill-opacity:1;">
  <use xlink:href="#glyph6-1" x="19.34375" y="355.351562"/>
  <use xlink:href="#glyph6-2" x="19.34375" y="352.154562"/>
  <use xlink:href="#glyph6-3" x="19.34375" y="349.601562"/>
  <use xlink:href="#glyph6-4" x="19.34375" y="343.207562"/>
  <use xlink:href="#glyph6-5" x="19.34375" y="336.813562"/>
  <use xlink:href="#glyph6-6" x="19.34375" y="332.984062"/>
  <use xlink:href="#glyph6-7" x="19.34375" y="326.590062"/>
  <use xlink:href="#glyph6-8" x="19.34375" y="320.840062"/>
  <use xlink:href="#glyph6-6" x="19.34375" y="315.090062"/>
  <use xlink:href="#glyph6-9" x="19.34375" y="308.696062"/>
  <use xlink:href="#glyph6-8" x="19.34375" y="302.302062"/>
  <use xlink:href="#glyph6-6" x="19.34375" y="296.552062"/>
  <use xlink:href="#glyph6-10" x="19.34375" y="290.158062"/>
  <use xlink:href="#glyph6-11" x="19.34375" y="286.961062"/>
  <use xlink:href="#glyph6-12" x="19.34375" y="283.131562"/>
  <use xlink:href="#glyph6-5" x="19.34375" y="276.737562"/>
  <use xlink:href="#glyph6-13" x="19.34375" y="272.908062"/>
  <use xlink:href="#glyph6-14" x="19.34375" y="266.514062"/>
  <use xlink:href="#glyph6-15" x="19.34375" y="263.961062"/>
  <use xlink:href="#glyph6-5" x="19.34375" y="260.764062"/>
  <use xlink:href="#glyph6-12" x="19.34375" y="256.934562"/>
  <use xlink:href="#glyph6-5" x="19.34375" y="250.540562"/>
  <use xlink:href="#glyph6-16" x="19.34375" y="246.711062"/>
  <use xlink:href="#glyph6-10" x="19.34375" y="240.961062"/>
  <use xlink:href="#glyph6-3" x="19.34375" y="237.764062"/>
  <use xlink:href="#glyph6-9" x="19.34375" y="231.370062"/>
  <use xlink:href="#glyph6-14" x="19.34375" y="224.976062"/>
  <use xlink:href="#glyph6-15" x="19.34375" y="222.423062"/>
  <use xlink:href="#glyph6-7" x="19.34375" y="219.226062"/>
  <use xlink:href="#glyph6-17" x="19.34375" y="213.476062"/>
</g>
<g style="fill:rgb(0%,0%,0%);fill-opacity:1;">
  <use xlink:href="#glyph5-10" x="27.328125" y="19.34375"/>
  <use xlink:href="#glyph5-7" x="35.631125" y="19.34375"/>
  <use xlink:href="#glyph5-11" x="42.025125" y="19.34375"/>
  <use xlink:href="#glyph5-5" x="44.578125" y="19.34375"/>
  <use xlink:href="#glyph5-9" x="47.131125" y="19.34375"/>
  <use xlink:href="#glyph5-1" x="50.328125" y="19.34375"/>
  <use xlink:href="#glyph5-2" x="54.157625" y="19.34375"/>
  <use xlink:href="#glyph5-3" x="60.551625" y="19.34375"/>
  <use xlink:href="#glyph5-4" x="66.945625" y="19.34375"/>
  <use xlink:href="#glyph5-5" x="69.498625" y="19.34375"/>
  <use xlink:href="#glyph5-6" x="72.051625" y="19.34375"/>
  <use xlink:href="#glyph5-7" x="77.801625" y="19.34375"/>
  <use xlink:href="#glyph5-8" x="84.195625" y="19.34375"/>
  <use xlink:href="#glyph5-2" x="87.392625" y="19.34375"/>
  <use xlink:href="#glyph5-9" x="93.786625" y="19.34375"/>
  <use xlink:href="#glyph5-3" x="96.983625" y="19.34375"/>
  <use xlink:href="#glyph5-4" x="103.377625" y="19.34375"/>
  <use xlink:href="#glyph5-7" x="105.930625" y="19.34375"/>
  <use xlink:href="#glyph5-8" x="112.324625" y="19.34375"/>
  <use xlink:href="#glyph5-2" x="115.521625" y="19.34375"/>
  <use xlink:href="#glyph5-12" x="121.915625" y="19.34375"/>
</g>
<g clip-path="url(#clip20)" clip-rule="nonzero">
<path style="fill:none;stroke-width:0.711319;stroke-linecap:butt;stroke-linejoin:round;stroke:rgb(92.156863%,92.156863%,92.156863%);stroke-opacity:1;stroke-miterlimit:10;" d="M 309.847656 456.5 L 565.042969 456.5 "/>
</g>
<g clip-path="url(#clip21)" clip-rule="nonzero">
<path style="fill:none;stroke-width:0.711319;stroke-linecap:butt;stroke-linejoin:round;stroke:rgb(92.156863%,92.156863%,92.156863%);stroke-opacity:1;stroke-miterlimit:10;" d="M 309.847656 309.355469 L 565.042969 309.355469 "/>
</g>
<g clip-path="url(#clip22)" clip-rule="nonzero">
<path style="fill:none;stroke-width:0.711319;stroke-linecap:butt;stroke-linejoin:round;stroke:rgb(92.156863%,92.156863%,92.156863%);stroke-opacity:1;stroke-miterlimit:10;" d="M 309.847656 162.214844 L 565.042969 162.214844 "/>
</g>
<g clip-path="url(#clip23)" clip-rule="nonzero">
<path style="fill:none;stroke-width:0.711319;stroke-linecap:butt;stroke-linejoin:round;stroke:rgb(92.156863%,92.156863%,92.156863%);stroke-opacity:1;stroke-miterlimit:10;" d="M 349.785156 537.671875 L 349.785156 27.328125 "/>
</g>
<g clip-path="url(#clip24)" clip-rule="nonzero">
<path style="fill:none;stroke-width:0.711319;stroke-linecap:butt;stroke-linejoin:round;stroke:rgb(92.156863%,92.156863%,92.156863%);stroke-opacity:1;stroke-miterlimit:10;" d="M 420.621094 537.671875 L 420.621094 27.328125 "/>
</g>
<g clip-path="url(#clip25)" clip-rule="nonzero">
<path style="fill:none;stroke-width:0.711319;stroke-linecap:butt;stroke-linejoin:round;stroke:rgb(92.156863%,92.156863%,92.156863%);stroke-opacity:1;stroke-miterlimit:10;" d="M 491.457031 537.671875 L 491.457031 27.328125 "/>
</g>
<g clip-path="url(#clip26)" clip-rule="nonzero">
<path style="fill:none;stroke-width:0.711319;stroke-linecap:butt;stroke-linejoin:round;stroke:rgb(92.156863%,92.156863%,92.156863%);stroke-opacity:1;stroke-miterlimit:10;" d="M 562.296875 537.671875 L 562.296875 27.328125 "/>
</g>
<g clip-path="url(#clip27)" clip-rule="nonzero">
<path style="fill:none;stroke-width:1.422638;stroke-linecap:butt;stroke-linejoin:round;stroke:rgb(92.156863%,92.156863%,92.156863%);stroke-opacity:1;stroke-miterlimit:10;" d="M 309.847656 530.070312 L 565.042969 530.070312 "/>
</g>
<g clip-path="url(#clip28)" clip-rule="nonzero">
<path style="fill:none;stroke-width:1.422638;stroke-linecap:butt;stroke-linejoin:round;stroke:rgb(92.156863%,92.156863%,92.156863%);stroke-opacity:1;stroke-miterlimit:10;" d="M 309.847656 382.925781 L 565.042969 382.925781 "/>
</g>
<g clip-path="url(#clip29)" clip-rule="nonzero">
<path style="fill:none;stroke-width:1.422638;stroke-linecap:butt;stroke-linejoin:round;stroke:rgb(92.156863%,92.156863%,92.156863%);stroke-opacity:1;stroke-miterlimit:10;" d="M 309.847656 235.785156 L 565.042969 235.785156 "/>
</g>
<g clip-path="url(#clip30)" clip-rule="nonzero">
<path style="fill:none;stroke-width:1.422638;stroke-linecap:butt;stroke-linejoin:round;stroke:rgb(92.156863%,92.156863%,92.156863%);stroke-opacity:1;stroke-miterlimit:10;" d="M 309.847656 88.640625 L 565.042969 88.640625 "/>
</g>
<g clip-path="url(#clip31)" clip-rule="nonzero">
<path style="fill:none;stroke-width:1.422638;stroke-linecap:butt;stroke-linejoin:round;stroke:rgb(92.156863%,92.156863%,92.156863%);stroke-opacity:1;stroke-miterlimit:10;" d="M 314.367188 537.671875 L 314.367188 27.328125 "/>
</g>
<g clip-path="url(#clip32)" clip-rule="nonzero">
<path style="fill:none;stroke-width:1.422638;stroke-linecap:butt;stroke-linejoin:round;stroke:rgb(92.156863%,92.156863%,92.156863%);stroke-opacity:1;stroke-miterlimit:10;" d="M 385.203125 537.671875 L 385.203125 27.328125 "/>
</g>
<g clip-path="url(#clip33)" clip-rule="nonzero">
<path style="fill:none;stroke-width:1.422638;stroke-linecap:butt;stroke-linejoin:round;stroke:rgb(92.156863%,92.156863%,92.156863%);stroke-opacity:1;stroke-miterlimit:10;" d="M 456.039062 537.671875 L 456.039062 27.328125 "/>
</g>
<g clip-path="url(#clip34)" clip-rule="nonzero">
<path style="fill:none;stroke-width:1.422638;stroke-linecap:butt;stroke-linejoin:round;stroke:rgb(92.156863%,92.156863%,92.156863%);stroke-opacity:1;stroke-miterlimit:10;" d="M 526.878906 537.671875 L 526.878906 27.328125 "/>
</g>
<path style="fill:none;stroke-width:1.422638;stroke-linecap:butt;stroke-linejoin:round;stroke:rgb(20%,20%,20%);stroke-opacity:1;stroke-miterlimit:10;" d="M 385.203125 278.496094 L 385.203125 78.90625 "/>
<g clip-path="url(#clip35)" clip-rule="nonzero">
<path style="fill:none;stroke-width:1.422638;stroke-linecap:butt;stroke-linejoin:round;stroke:rgb(20%,20%,20%);stroke-opacity:1;stroke-miterlimit:10;" d="M 385.203125 495.804688 L 385.203125 576 "/>
</g>
<path style="fill-rule:nonzero;fill:rgb(100%,100%,100%);fill-opacity:1;stroke-width:1.422638;stroke-linecap:round;stroke-linejoin:round;stroke:rgb(20%,20%,20%);stroke-opacity:1;stroke-miterlimit:10;" d="M 358.636719 278.496094 L 358.636719 495.804688 L 411.765625 495.804688 L 411.765625 278.496094 Z M 358.636719 278.496094 "/>
<path style="fill:none;stroke-width:2.845276;stroke-linecap:butt;stroke-linejoin:round;stroke:rgb(20%,20%,20%);stroke-opacity:1;stroke-miterlimit:10;" d="M 358.636719 361.363281 L 411.765625 361.363281 "/>
<path style="fill:none;stroke-width:1.422638;stroke-linecap:butt;stroke-linejoin:round;stroke:rgb(20%,20%,20%);stroke-opacity:1;stroke-miterlimit:10;" d="M 456.039062 198.0625 L 456.039062 75.789062 "/>
<g clip-path="url(#clip36)" clip-rule="nonzero">
<path style="fill:none;stroke-width:1.422638;stroke-linecap:butt;stroke-linejoin:round;stroke:rgb(20%,20%,20%);stroke-opacity:1;stroke-miterlimit:10;" d="M 456.039062 405.75 L 456.039062 576 "/>
</g>
<path style="fill-rule:nonzero;fill:rgb(100%,100%,100%);fill-opacity:1;stroke-width:1.422638;stroke-linecap:round;stroke-linejoin:round;stroke:rgb(20%,20%,20%);stroke-opacity:1;stroke-miterlimit:10;" d="M 429.476562 198.0625 L 429.476562 405.75 L 482.605469 405.75 L 482.605469 198.0625 Z M 429.476562 198.0625 "/>
<path style="fill:none;stroke-width:2.845276;stroke-linecap:butt;stroke-linejoin:round;stroke:rgb(20%,20%,20%);stroke-opacity:1;stroke-miterlimit:10;" d="M 429.476562 278.042969 L 482.605469 278.042969 "/>
<path style="fill:none;stroke-width:1.422638;stroke-linecap:butt;stroke-linejoin:round;stroke:rgb(20%,20%,20%);stroke-opacity:1;stroke-miterlimit:10;" d="M 526.878906 185.15625 L 526.878906 50.527344 "/>
<path style="fill:none;stroke-width:1.422638;stroke-linecap:butt;stroke-linejoin:round;stroke:rgb(20%,20%,20%);stroke-opacity:1;stroke-miterlimit:10;" d="M 526.878906 322.359375 L 526.878906 527.328125 "/>
<path style="fill-rule:nonzero;fill:rgb(100%,100%,100%);fill-opacity:1;stroke-width:1.422638;stroke-linecap:round;stroke-linejoin:round;stroke:rgb(20%,20%,20%);stroke-opacity:1;stroke-miterlimit:10;" d="M 500.3125 185.15625 L 500.3125 322.359375 L 553.441406 322.359375 L 553.441406 185.15625 Z M 500.3125 185.15625 "/>
<path style="fill:none;stroke-width:2.845276;stroke-linecap:butt;stroke-linejoin:round;stroke:rgb(20%,20%,20%);stroke-opacity:1;stroke-miterlimit:10;" d="M 500.3125 258.492188 L 553.441406 258.492188 "/>
<path style=" stroke:none;fill-rule:nonzero;fill:rgb(60%,60%,60%);fill-opacity:0.4;" d="M 385.203125 334.5625 L 388.789062 333.015625 L 390.582031 332.230469 L 392.375 331.441406 L 394.167969 330.644531 L 395.960938 329.839844 L 397.757812 329.03125 L 399.550781 328.210938 L 401.34375 327.386719 L 403.136719 326.550781 L 404.929688 325.707031 L 406.722656 324.855469 L 408.515625 323.992188 L 410.308594 323.121094 L 412.101562 322.238281 L 413.894531 321.34375 L 415.691406 320.4375 L 417.484375 319.523438 L 419.277344 318.59375 L 421.070312 317.648438 L 422.863281 316.691406 L 424.65625 315.722656 L 426.449219 314.734375 L 428.242188 313.734375 L 430.035156 312.714844 L 431.828125 311.683594 L 433.625 310.632812 L 435.417969 309.5625 L 437.210938 308.476562 L 439.003906 307.371094 L 440.796875 306.246094 L 442.589844 305.101562 L 444.382812 303.9375 L 446.175781 302.75 L 447.96875 301.542969 L 449.761719 300.316406 L 451.558594 299.066406 L 453.351562 297.796875 L 455.144531 296.503906 L 456.9375 295.1875 L 458.730469 293.851562 L 460.523438 292.496094 L 462.316406 291.117188 L 464.109375 289.714844 L 465.902344 288.292969 L 467.695312 286.847656 L 469.488281 285.386719 L 471.285156 283.902344 L 473.078125 282.398438 L 474.871094 280.875 L 476.664062 279.332031 L 478.457031 277.773438 L 480.25 276.195312 L 482.042969 274.601562 L 483.835938 272.988281 L 485.628906 271.363281 L 487.421875 269.71875 L 489.21875 268.0625 L 491.011719 266.390625 L 492.804688 264.703125 L 494.597656 263.003906 L 496.390625 261.292969 L 498.183594 259.570312 L 499.976562 257.835938 L 501.769531 256.089844 L 503.5625 254.332031 L 505.355469 252.566406 L 507.152344 250.792969 L 508.945312 249.007812 L 510.738281 247.210938 L 512.53125 245.410156 L 514.324219 243.597656 L 516.117188 241.78125 L 517.910156 239.957031 L 521.496094 236.285156 L 523.289062 234.4375 L 525.085938 232.585938 L 526.878906 230.730469 L 526.878906 302.574219 L 525.085938 303.347656 L 523.289062 304.125 L 521.496094 304.90625 L 519.703125 305.695312 L 517.910156 306.492188 L 516.117188 307.296875 L 514.324219 308.105469 L 512.53125 308.925781 L 510.738281 309.75 L 508.945312 310.585938 L 507.152344 311.429688 L 505.355469 312.28125 L 503.5625 313.144531 L 501.769531 314.015625 L 499.976562 314.898438 L 498.183594 315.792969 L 496.390625 316.699219 L 494.597656 317.613281 L 492.804688 318.542969 L 491.011719 319.488281 L 489.21875 320.445312 L 487.421875 321.414062 L 485.628906 322.402344 L 483.835938 323.402344 L 482.042969 324.421875 L 480.25 325.453125 L 478.457031 326.503906 L 476.664062 327.574219 L 474.871094 328.660156 L 473.078125 329.765625 L 471.285156 330.890625 L 469.488281 332.035156 L 467.695312 333.203125 L 465.902344 334.386719 L 464.109375 335.59375 L 462.316406 336.820312 L 460.523438 338.070312 L 458.730469 339.339844 L 456.9375 340.632812 L 455.144531 341.949219 L 453.351562 343.285156 L 451.558594 344.640625 L 449.761719 346.019531 L 447.96875 347.421875 L 446.175781 348.84375 L 444.382812 350.289062 L 442.589844 351.75 L 440.796875 353.234375 L 439.003906 354.738281 L 437.210938 356.261719 L 435.417969 357.804688 L 433.625 359.363281 L 431.828125 360.941406 L 430.035156 362.535156 L 428.242188 364.148438 L 426.449219 365.773438 L 424.65625 367.417969 L 422.863281 369.074219 L 421.070312 370.746094 L 419.277344 372.433594 L 417.484375 374.132812 L 415.691406 375.84375 L 413.894531 377.566406 L 412.101562 379.300781 L 410.308594 381.046875 L 408.515625 382.804688 L 406.722656 384.570312 L 404.929688 386.34375 L 403.136719 388.132812 L 401.34375 389.925781 L 399.550781 391.726562 L 397.757812 393.539062 L 395.960938 395.355469 L 394.167969 397.179688 L 390.582031 400.851562 L 388.789062 402.699219 L 386.996094 404.550781 L 385.203125 406.40625 Z M 385.203125 334.5625 "/>
<path style="fill:none;stroke-width:2.845276;stroke-linecap:butt;stroke-linejoin:round;stroke:rgb(20%,40%,100%);stroke-opacity:1;stroke-miterlimit:10;" d="M 385.203125 370.484375 L 386.996094 369.171875 L 388.789062 367.855469 L 390.582031 366.542969 L 392.375 365.226562 L 394.167969 363.914062 L 395.960938 362.597656 L 397.757812 361.285156 L 399.550781 359.96875 L 401.34375 358.65625 L 403.136719 357.339844 L 404.929688 356.027344 L 406.722656 354.710938 L 408.515625 353.398438 L 410.308594 352.082031 L 413.894531 349.457031 L 415.691406 348.140625 L 417.484375 346.828125 L 419.277344 345.511719 L 421.070312 344.199219 L 422.863281 342.882812 L 424.65625 341.570312 L 426.449219 340.253906 L 428.242188 338.941406 L 430.035156 337.625 L 431.828125 336.3125 L 433.625 334.996094 L 435.417969 333.683594 L 437.210938 332.367188 L 440.796875 329.742188 L 442.589844 328.425781 L 444.382812 327.113281 L 446.175781 325.796875 L 447.96875 324.484375 L 449.761719 323.167969 L 451.558594 321.855469 L 453.351562 320.539062 L 455.144531 319.226562 L 456.9375 317.910156 L 458.730469 316.597656 L 460.523438 315.28125 L 462.316406 313.96875 L 464.109375 312.652344 L 465.902344 311.339844 L 467.695312 310.023438 L 469.488281 308.710938 L 471.285156 307.398438 L 473.078125 306.082031 L 474.871094 304.769531 L 476.664062 303.453125 L 478.457031 302.140625 L 480.25 300.824219 L 482.042969 299.511719 L 483.835938 298.195312 L 485.628906 296.882812 L 487.421875 295.566406 L 489.21875 294.253906 L 491.011719 292.9375 L 492.804688 291.625 L 494.597656 290.308594 L 496.390625 288.996094 L 498.183594 287.679688 L 501.769531 285.054688 L 503.5625 283.738281 L 505.355469 282.425781 L 507.152344 281.109375 L 508.945312 279.796875 L 510.738281 278.480469 L 512.53125 277.167969 L 514.324219 275.851562 L 516.117188 274.539062 L 517.910156 273.222656 L 519.703125 271.910156 L 521.496094 270.59375 L 523.289062 269.28125 L 525.085938 267.964844 L 526.878906 266.652344 "/>
<path style="fill-rule:nonzero;fill:rgb(100%,100%,100%);fill-opacity:0.85098;stroke-width:0.711319;stroke-linecap:round;stroke-linejoin:round;stroke:rgb(0%,0%,0%);stroke-opacity:1;stroke-miterlimit:10;" d="M 323.609375 80.417969 L 451.644531 80.417969 L 451.558594 80.417969 L 451.90625 80.402344 L 452.246094 80.332031 L 452.570312 80.210938 L 452.871094 80.035156 L 453.140625 79.816406 L 453.371094 79.554688 L 453.558594 79.261719 L 453.695312 78.941406 L 453.777344 78.605469 L 453.804688 78.257812 L 453.804688 61.226562 L 453.777344 60.878906 L 453.695312 60.542969 L 453.558594 60.222656 L 453.371094 59.929688 L 453.140625 59.667969 L 452.871094 59.449219 L 452.570312 59.273438 L 452.246094 59.152344 L 451.90625 59.082031 L 451.644531 59.066406 L 323.609375 59.066406 L 323.871094 59.082031 L 323.523438 59.070312 L 323.175781 59.109375 L 322.84375 59.207031 L 322.527344 59.355469 L 322.242188 59.554688 L 321.992188 59.792969 L 321.785156 60.074219 L 321.621094 60.378906 L 321.511719 60.710938 L 321.457031 61.054688 L 321.449219 61.226562 L 321.449219 78.257812 L 321.457031 78.082031 L 321.457031 78.429688 L 321.511719 78.773438 L 321.621094 79.105469 L 321.785156 79.414062 L 321.992188 79.691406 L 322.242188 79.929688 L 322.527344 80.128906 L 322.84375 80.277344 L 323.175781 80.375 L 323.523438 80.417969 Z M 323.609375 80.417969 "/>
<g style="fill:rgb(0%,0%,0%);fill-opacity:1;">
  <use xlink:href="#glyph0-1" x="324.761719" y="73.839844"/>
</g>
<g style="fill:rgb(0%,0%,0%);fill-opacity:1;">
  <use xlink:href="#glyph1-1" x="334.355469" y="68.097656"/>
</g>
<g style="fill:rgb(0%,0%,0%);fill-opacity:1;">
  <use xlink:href="#glyph2-1" x="338.929688" y="73.839844"/>
</g>
<g style="fill:rgb(0%,0%,0%);fill-opacity:1;">
  <use xlink:href="#glyph3-1" x="341.8125" y="73.839844"/>
</g>
<g style="fill:rgb(0%,0%,0%);fill-opacity:1;">
  <use xlink:href="#glyph2-1" x="348.554688" y="73.839844"/>
</g>
<g style="fill:rgb(0%,0%,0%);fill-opacity:1;">
  <use xlink:href="#glyph3-5" x="351.4375" y="73.839844"/>
  <use xlink:href="#glyph3-8" x="357.853556" y="73.839844"/>
  <use xlink:href="#glyph3-5" x="361.061584" y="73.839844"/>
  <use xlink:href="#glyph3-10" x="367.47764" y="73.839844"/>
  <use xlink:href="#glyph3-2" x="373.893696" y="73.839844"/>
</g>
<g style="fill:rgb(0%,0%,0%);fill-opacity:1;">
  <use xlink:href="#glyph2-1" x="380.308594" y="73.839844"/>
</g>
<g style="fill:rgb(0%,0%,0%);fill-opacity:1;">
  <use xlink:href="#glyph3-7" x="383.195312" y="73.839844"/>
</g>
<g style="fill:rgb(0%,0%,0%);fill-opacity:1;">
  <use xlink:href="#glyph2-1" x="386.402344" y="73.839844"/>
</g>
<g style="fill:rgb(0%,0%,0%);fill-opacity:1;">
  <use xlink:href="#glyph0-2" x="389.289062" y="73.839844"/>
</g>
<g style="fill:rgb(0%,0%,0%);fill-opacity:1;">
  <use xlink:href="#glyph2-1" x="395.703125" y="73.839844"/>
</g>
<g style="fill:rgb(0%,0%,0%);fill-opacity:1;">
  <use xlink:href="#glyph3-1" x="398.589844" y="73.839844"/>
</g>
<g style="fill:rgb(0%,0%,0%);fill-opacity:1;">
  <use xlink:href="#glyph2-1" x="405.328125" y="73.839844"/>
</g>
<g style="fill:rgb(0%,0%,0%);fill-opacity:1;">
  <use xlink:href="#glyph3-5" x="408.214844" y="73.839844"/>
  <use xlink:href="#glyph3-8" x="414.6309" y="73.839844"/>
  <use xlink:href="#glyph3-5" x="417.838928" y="73.839844"/>
  <use xlink:href="#glyph3-5" x="424.254984" y="73.839844"/>
  <use xlink:href="#glyph3-5" x="430.67104" y="73.839844"/>
  <use xlink:href="#glyph3-11" x="437.087096" y="73.839844"/>
  <use xlink:href="#glyph3-12" x="443.503152" y="73.839844"/>
</g>
<g style="fill:rgb(30.196078%,30.196078%,30.196078%);fill-opacity:1;">
  <use xlink:href="#glyph4-1" x="311.78125" y="549.382812"/>
</g>
<g style="fill:rgb(30.196078%,30.196078%,30.196078%);fill-opacity:1;">
  <use xlink:href="#glyph4-2" x="382.617188" y="549.382812"/>
</g>
<g style="fill:rgb(30.196078%,30.196078%,30.196078%);fill-opacity:1;">
  <use xlink:href="#glyph4-3" x="453.453125" y="549.382812"/>
</g>
<g style="fill:rgb(30.196078%,30.196078%,30.196078%);fill-opacity:1;">
  <use xlink:href="#glyph4-4" x="524.292969" y="549.382812"/>
</g>
<g style="fill:rgb(0%,0%,0%);fill-opacity:1;">
  <use xlink:href="#glyph5-1" x="401.652344" y="562.535156"/>
  <use xlink:href="#glyph5-2" x="405.481844" y="562.535156"/>
  <use xlink:href="#glyph5-3" x="411.875844" y="562.535156"/>
  <use xlink:href="#glyph5-4" x="418.269844" y="562.535156"/>
  <use xlink:href="#glyph5-5" x="420.822844" y="562.535156"/>
  <use xlink:href="#glyph5-6" x="423.375844" y="562.535156"/>
  <use xlink:href="#glyph5-7" x="429.125844" y="562.535156"/>
  <use xlink:href="#glyph5-8" x="435.519844" y="562.535156"/>
  <use xlink:href="#glyph5-2" x="438.716844" y="562.535156"/>
  <use xlink:href="#glyph5-9" x="445.110844" y="562.535156"/>
  <use xlink:href="#glyph5-3" x="448.307844" y="562.535156"/>
  <use xlink:href="#glyph5-4" x="454.701844" y="562.535156"/>
  <use xlink:href="#glyph5-7" x="457.254844" y="562.535156"/>
  <use xlink:href="#glyph5-8" x="463.648844" y="562.535156"/>
  <use xlink:href="#glyph5-2" x="466.845844" y="562.535156"/>
</g>
<g style="fill:rgb(0%,0%,0%);fill-opacity:1;">
  <use xlink:href="#glyph6-1" x="301.863281" y="355.351562"/>
  <use xlink:href="#glyph6-2" x="301.863281" y="352.154562"/>
  <use xlink:href="#glyph6-3" x="301.863281" y="349.601562"/>
  <use xlink:href="#glyph6-4" x="301.863281" y="343.207562"/>
  <use xlink:href="#glyph6-5" x="301.863281" y="336.813562"/>
  <use xlink:href="#glyph6-6" x="301.863281" y="332.984062"/>
  <use xlink:href="#glyph6-7" x="301.863281" y="326.590062"/>
  <use xlink:href="#glyph6-8" x="301.863281" y="320.840062"/>
  <use xlink:href="#glyph6-6" x="301.863281" y="315.090062"/>
  <use xlink:href="#glyph6-9" x="301.863281" y="308.696062"/>
  <use xlink:href="#glyph6-8" x="301.863281" y="302.302062"/>
  <use xlink:href="#glyph6-6" x="301.863281" y="296.552062"/>
  <use xlink:href="#glyph6-10" x="301.863281" y="290.158062"/>
  <use xlink:href="#glyph6-11" x="301.863281" y="286.961062"/>
  <use xlink:href="#glyph6-12" x="301.863281" y="283.131562"/>
  <use xlink:href="#glyph6-5" x="301.863281" y="276.737562"/>
  <use xlink:href="#glyph6-13" x="301.863281" y="272.908062"/>
  <use xlink:href="#glyph6-14" x="301.863281" y="266.514062"/>
  <use xlink:href="#glyph6-15" x="301.863281" y="263.961062"/>
  <use xlink:href="#glyph6-5" x="301.863281" y="260.764062"/>
  <use xlink:href="#glyph6-12" x="301.863281" y="256.934562"/>
  <use xlink:href="#glyph6-5" x="301.863281" y="250.540562"/>
  <use xlink:href="#glyph6-16" x="301.863281" y="246.711062"/>
  <use xlink:href="#glyph6-10" x="301.863281" y="240.961062"/>
  <use xlink:href="#glyph6-3" x="301.863281" y="237.764062"/>
  <use xlink:href="#glyph6-9" x="301.863281" y="231.370062"/>
  <use xlink:href="#glyph6-14" x="301.863281" y="224.976062"/>
  <use xlink:href="#glyph6-15" x="301.863281" y="222.423062"/>
  <use xlink:href="#glyph6-7" x="301.863281" y="219.226062"/>
  <use xlink:href="#glyph6-17" x="301.863281" y="213.476062"/>
</g>
<g style="fill:rgb(0%,0%,0%);fill-opacity:1;">
  <use xlink:href="#glyph5-13" x="309.847656" y="19.34375"/>
  <use xlink:href="#glyph5-14" x="318.150656" y="19.34375"/>
  <use xlink:href="#glyph5-15" x="327.097656" y="19.34375"/>
  <use xlink:href="#glyph5-16" x="330.927156" y="19.34375"/>
  <use xlink:href="#glyph5-17" x="337.321156" y="19.34375"/>
  <use xlink:href="#glyph5-9" x="343.715156" y="19.34375"/>
  <use xlink:href="#glyph5-1" x="346.912156" y="19.34375"/>
  <use xlink:href="#glyph5-2" x="350.741656" y="19.34375"/>
  <use xlink:href="#glyph5-3" x="357.135656" y="19.34375"/>
  <use xlink:href="#glyph5-4" x="363.529656" y="19.34375"/>
  <use xlink:href="#glyph5-5" x="366.082656" y="19.34375"/>
  <use xlink:href="#glyph5-6" x="368.635656" y="19.34375"/>
  <use xlink:href="#glyph5-7" x="374.385656" y="19.34375"/>
  <use xlink:href="#glyph5-8" x="380.779656" y="19.34375"/>
  <use xlink:href="#glyph5-2" x="383.976656" y="19.34375"/>
  <use xlink:href="#glyph5-9" x="390.370656" y="19.34375"/>
  <use xlink:href="#glyph5-3" x="393.567656" y="19.34375"/>
  <use xlink:href="#glyph5-4" x="399.961656" y="19.34375"/>
  <use xlink:href="#glyph5-7" x="402.514656" y="19.34375"/>
  <use xlink:href="#glyph5-8" x="408.908656" y="19.34375"/>
  <use xlink:href="#glyph5-2" x="412.105656" y="19.34375"/>
  <use xlink:href="#glyph5-12" x="418.499656" y="19.34375"/>
</g>
</g>
</svg>
